3580470	White Sand Bay	White Sand Bay		19.28333	-81.13333	H	BAY	KY		00				0		-9999	America/Cayman	1993-12-21
3580471	Whitehall Estate	Whitehall Estate		19.3	-81.36667	P	PPL	KY		00				0		4	America/Cayman	1993-12-21
3580472	White Bay	White Bay		19.7	-79.86667	H	BAY	KY		00				0		7	America/Cayman	1993-12-21
3580473	West End Point	West End Point	South West Point,West End Point	19.68333	-79.9	T	PT	KY	KY	00				0		-9999	America/Cayman	2012-01-18
3580474	West End Point	West End Point	South West Point,West End Point	19.65863	-80.11655	T	PT	KY	KY	00				0		-9999	America/Cayman	2014-01-18
3580475	West End	West End		19.68333	-79.88333	P	PPL	KY		00				0		2	America/Cayman	1993-12-21
3580476	West Bay Anchorage	West Bay Anchorage		19.36667	-81.41667	H	ANCH	KY		00				0		-9999	America/Cayman	1993-12-21
3580477	West Bay	West Bay	West Bay,West End	19.36667	-81.41667	P	PPLA	KY		10375968				11269		-9999	America/Cayman	2015-07-12
3580478	West Bay	West Bay	West Bay	19.35	-81.4	H	BAY	KY		00				0		-9999	America/Cayman	2012-02-02
3580479	Welch Point	Welch Point		19.33333	-81.36667	T	PT	KY		00				0		12	America/Cayman	1993-12-21
3580480	Weary Hill	Weary Hill		19.7	-79.98333	T	HLL	KY		00				0		7	America/Cayman	1993-12-21
3580481	Wearis Bay	Wearis Bay		19.68191	-80.02772	H	BAY	KY		00				0		2	America/Cayman	2014-08-09
3580482	Water Point	Water Point		19.37083	-81.26995	T	PT	KY		00				0		5	America/Cayman	2014-07-19
3580483	Watering Place	Watering Place		19.73333	-79.76667	L	LCTY	KY		00				0		37	America/Cayman	1993-12-21
3580484	Water Ground	Water Ground		19.38333	-81.4	P	PPL	KY		00				0		6	America/Cayman	1993-12-21
3580485	Water Cay	Water Cay		19.35	-81.28333	T	PT	KY		00				0		-9999	America/Cayman	1993-12-21
3580486	Vulgunners Pond	Vulgunners Pond		19.38333	-81.38333	H	LK	KY		00				0		4	America/Cayman	1993-12-21
3580487	Vidal Cay	Vidal Cay	Vidal Cay	19.38333	-81.35	T	ISL	KY		00				0		-9999	America/Cayman	2018-12-05
3580488	Vicksville	Vicksville		19.36667	-81.41667	P	PPL	KY		00				0		-9999	America/Cayman	1993-12-21
3580489	Upper Land	Upper Land		19.35	-81.38333	P	PPL	KY		00				0		9	America/Cayman	1993-12-21
3580490	Tropical Gardens	Tropical Gardens		19.28333	-81.35	P	PPL	KY		00				0		6	America/Cayman	1993-12-21
3580491	Town Hall Crescent	Town Hall Crescent		19.38333	-81.41667	P	PPL	KY		00				0		-9999	America/Cayman	1993-12-21
3580492	Tom Jennett’s Bay	Tom Jennett's Bay		19.71667	-79.75	H	BAY	KY		00				0		-9999	America/Cayman	1993-12-21
3580493	Timms Point	Timms Point	Timms Point	19.36667	-81.4	T	PT	KY		00				0		3	America/Cayman	2018-12-05
3580494	Tibbetts Turn	Tibbetts Turn		19.73333	-79.78333	P	PPL	KY		00				0		9	America/Cayman	1993-12-21
3580495	The Mountain	The Mountain		19.33333	-81.2	L	LCTY	KY		00				0		21	America/Cayman	1993-12-21
3580496	The Moorings	The Moorings		19.73333	-79.8	P	PPL	KY		00				0		18	America/Cayman	1993-12-21
3580497	The Moorings	The Moorings		19.73333	-79.78333	P	PPL	KY		00				0		9	America/Cayman	1993-12-21
3580498	The Common	The Common		19.38333	-81.4	P	PPL	KY		00				0		6	America/Cayman	1993-12-21
3580499	The Bluff	The Bluff		19.73548	-79.73594	L	LCTY	KY		00				0		9	America/Cayman	2011-02-12
3580500	The Bluff	The Bluff		19.73333	-79.73333	L	AREA	KY		00				0		-9999	America/Cayman	1993-12-21
3580501	The Bight	The Bight		19.68333	-80.05	H	BAY	KY		00				0		6	America/Cayman	1997-07-07
3580502	Tarpon Lake	Tarpon Lake		19.68122	-80.04064	H	LK	KY		00				0		9	America/Cayman	2014-08-09
3580503	Stake Bay Point	Stake Bay Point	Stake Bay Point,Stakes Bay Point	19.72785	-79.81404	T	PT	KY	KY	00				0		6	America/Cayman	2014-01-18
3580504	Stake Bay	Stake Bay	Stake Bay,Stakes Bay	19.71667	-79.85	H	BAY	KY	KY	00				0		-9999	America/Cayman	2012-01-18
3580505	Spotts Bay	Spotts Bay	Spots Bay,Spotts Bay	19.27053	-81.31464	H	BAY	KY	KY	00				0		-9999	America/Cayman	2014-04-10
3580506	Spotts	Spotts		19.2742	-81.31256	P	PPL	KY		00				0		10	America/Cayman	2014-01-05
3580507	Spotter Bay	Spotter Bay		19.35	-81.1	H	BAY	KY		00				0		12	America/Cayman	1993-12-21
3580508	Spots	Spots		19.7	-79.81667	H	BAY	KY		00				0		-9999	America/Cayman	1993-12-21
3580509	Spotlands Plantations	Spotlands Plantations		19.71667	-79.76667	S	EST	KY		00				0		12	America/Cayman	1993-12-21
3580510	Spot Bay	Spot Bay		19.75	-79.75	P	PPL	KY		00				0		44	America/Cayman	1993-12-21
3580511	Spot Bay	Spot Bay		19.66609	-80.10696	H	BAY	KY		00				0		4	America/Cayman	2014-08-09
3580513	Sparrowhawk Point	Sparrowhawk Point		19.3	-81.08333	T	PT	KY		00				0		-9999	America/Cayman	1993-12-21
3580514	Sparrowhawk Hill	Sparrowhawk Hill		19.69549	-80.04729	T	HLL	KY		00				0		6	America/Cayman	2014-08-09
3580515	Spanish Bay	Spanish Bay		19.4	-81.4	H	BAY	KY		00				0		-9999	America/Cayman	1993-12-21
3580516	Southwest Point	Southwest Point		19.65847	-80.11454	T	PT	KY		00				0		-9999	America/Cayman	2014-01-18
3580517	South West Point	South West Point		19.27031	-81.39067	T	PT	KY		00				0		5	America/Cayman	2014-04-10
3580518	South Town	South Town	Blossom Village,South Hole,South Town	19.65939	-80.08382	P	PPL	KY	KY	00				0		7	America/Cayman	2014-08-09
3580519	South Sound	South Sound	South Sound,South West Sound	19.2721	-81.35342	H	BAY	KY	KY	00				0		-9999	America/Cayman	2014-04-10
3580520	South Hole Sound	South Hole Sound		19.67251	-80.05675	H	SD	KY		00				0		1	America/Cayman	2014-08-09
3580521	South East Bay	South East Bay		19.68333	-79.83333	H	BAY	KY		00				0		-9999	America/Cayman	1993-12-21
3580522	South Channel	South Channel		19.28333	-81.1	H	CHN	KY		00				0		-9999	America/Cayman	1993-12-21
3580523	Snipe Point	Snipe Point		19.71314	-79.97549	T	PT	KY		00				0		5	America/Cayman	2014-01-18
3580524	Seven Mile Beach	Seven Mile Beach		19.35	-81.38333	T	BCH	KY		00				0		9	America/Cayman	1993-12-21
3580525	Sea Pond	Sea Pond		19.4	-81.38333	H	LK	KY		00				0		1	America/Cayman	1993-12-21
3580526	Sea Feather Bay	Sea Feather Bay		19.7	-79.8	H	BAY	KY		00				0		-9999	America/Cayman	1993-12-21
3580527	Scotts Anchorage	Scotts Anchorage	Scotts Anchorage,Scotts Bay	19.68333	-79.9	H	BAY	KY	KY	00				0		-9999	America/Cayman	2012-01-18
3580528	Savannah Acres	Savannah Acres		19.28333	-81.3	P	PPLL	KY		00				0		6	America/Cayman	1993-12-21
3580529	Savannah	Savannah		19.2806	-81.29866	P	PPL	KY		00				0		7	America/Cayman	2014-04-10
3580530	Sandy Point	Sandy Point	Sand Cliff Point,Sandy Point	19.7	-79.96667	T	PT	KY	KY	00				0		4	America/Cayman	2012-01-18
3580531	Sanders Rock	Sanders Rock		19.38333	-81.36667	T	RK	KY		00				0		3	America/Cayman	1993-12-21
3580532	Sand Cay	Sand Cay		19.26314	-81.38625	T	ISL	KY		00				0		-9999	America/Cayman	2014-04-10
3580533	Sand Bluff	Sand Bluff		19.31667	-81.08333	P	PPL	KY		00				0		-9999	America/Cayman	1993-12-21
3580534	Sand Bluff	Sand Bluff		19.31667	-81.08333	T	CLF	KY		00				0		-9999	America/Cayman	1993-12-21
3580535	Salt Water Pond	Salt Water Pond		19.68333	-79.86667	H	LK	KY		00				0		-9999	America/Cayman	1993-12-21
3580536	Salt Water Point	Salt Water Point	Salt Water Point	19.68333	-79.85	T	PT	KY		00				0		-9999	America/Cayman	2018-12-05
3580537	Salt Rocks Landing	Salt Rocks Landing		19.66804	-80.10406	S	LDNG	KY		00				0		3	America/Cayman	2014-08-09
3580538	Salt Rocks	Salt Rocks		19.66401	-80.10634	T	RK	KY		00				0		8	America/Cayman	2014-08-09
3580539	Salt Creek	Salt Creek		19.35	-81.38333	H	INLT	KY		00				0		9	America/Cayman	1993-12-21
3580540	Saint James	Saint James		19.26667	-81.3	P	PPL	KY		00				0		8	America/Cayman	1993-12-21
3580541	Rum Point Channel	Rum Point Channel		19.36667	-81.3	H	CHN	KY		00				0		-9999	America/Cayman	1993-12-21
3580542	Rum Point	Rum Point		19.35	-81.28333	T	PT	KY		00				0		-9999	America/Cayman	1993-12-21
3580543	Rosetta Flats	Rosetta Flats		19.68333	-79.96667	H	RF	KY		00				0		-9999	America/Cayman	1993-12-21
3580544	Rogers Wreck Point	Rogers Wreck Point	Roger Wreck Point,Rogers Wreck Point	19.35	-81.08333	T	PT	KY	KY	00				0		-9999	America/Cayman	2012-01-18
3580545	Rock Hole	Rock Hole		19.3	-81.36667	P	PPLX	KY		00				0		4	America/Cayman	1993-12-21
3580546	The Rock	The Rock		19.7	-79.85	T	RK	KY		00				0		16	America/Cayman	1993-12-21
3580547	Red Bay Estate	Red Bay Estate	Red Bay,Red Bay Estate	19.28333	-81.35	P	PPL	KY	KY	00				0		6	America/Cayman	2012-01-18
3580548	Red Bay	Red Bay		19.28333	-81.35	H	COVE	KY		00				0		6	America/Cayman	1993-12-21
3580549	Pull-and-be-Damned Point	Pull-and-be-Damned Point		19.26667	-81.38333	T	PT	KY		00				0		10	America/Cayman	1993-12-21
3580550	Prospect Point	Prospect Point		19.27283	-81.33822	T	PT	KY		00				0		8	America/Cayman	2014-04-10
3580551	Prospect Park	Prospect Park		19.28072	-81.3302	P	PPL	KY		00				0		5	America/Cayman	2014-04-10
3580552	Prospect Beach	Prospect Beach		19.27335	-81.33483	T	BCH	KY		00				0		8	America/Cayman	2014-04-10
3580553	Prospect	Prospect		19.27971	-81.33277	P	PPL	KY		00				0		5	America/Cayman	2014-04-10
3580554	Preston Bay	Preston Bay		19.65712	-80.09449	H	BAY	KY		00				0		-9999	America/Cayman	2014-08-09
3580555	Pollard Bay	Pollard Bay		19.73333	-79.71667	H	BAY	KY		00				0		-9999	America/Cayman	1993-12-21
3580556	Pedro	Pedro		19.28333	-81.26667	P	PPL	KY		00				0		3	America/Cayman	1993-12-21
3580557	Pease Bay	Pease Bay		19.28781	-81.24166	P	PPL	KY		00				0		5	America/Cayman	2014-01-05
3580558	Pease Bay	Pease Bay		19.28333	-81.23333	H	BAY	KY		00				0		-9999	America/Cayman	1993-12-21
3580559	Palmetto Point	Palmetto Point		19.38333	-81.36667	T	PT	KY		00				0		3	America/Cayman	1993-12-21
3580560	Owen Roberts International Airport	Owen Roberts International Airport	Aeroport international Owen Roberts de Georgetown,Aeroporto Internacional Owen Roberts,Aeroporto Internazionale Owen Roberts,Aeropuerto Internacional Owen Roberts,Aéroport international Owen Roberts de Georgetown,Bandar Udara Internasional Owen Roberts,GCM,Georgetown Owen Roberts International Airport,Lapangan Terbang Antarabangsa Roberts,MWCR,Port lotniczy Owen Roberts,San bay quoc te Owen Roberts,Sân bay quốc tế Owen Roberts,frwdgah byn‌almlly awwn rabrts,فرودگاه بین‌المللی اوون رابرتس,歐文·羅伯茨國際機場	19.29278	-81.35775	S	AIRP	KY	KY	00				0	2	6	America/Cayman	2014-01-05
3580561	Owen Island	Owen Island		19.66643	-80.0625	T	ISL	KY		00				0		1	America/Cayman	2014-08-09
3580562	Omega Gardens	Omega Gardens		19.3	-81.33333	P	PPL	KY		00				0		1	America/Cayman	1993-12-21
3580563	Old Stores	Old Stores		19.4	-81.4	P	PPL	KY		00				0		-9999	America/Cayman	1993-12-21
3580564	Old Savannah	Old Savannah		19.33333	-81.21667	L	LCTY	KY		00				0		7	America/Cayman	1993-12-21
3580565	Old Robin Point	Old Robin Point	Old Robin Point	19.35	-81.15	T	PT	KY		00				0		6	America/Cayman	2018-12-05
3580566	Old Man Bay	Old Man Bay	Old Man Bay,Old Man Village	19.35	-81.18333	P	PPL	KY	KY	00				0		4	America/Cayman	2012-01-18
3580567	Old Man Bay	Old Man Bay		19.35	-81.18333	H	BAY	KY		00				0		4	America/Cayman	1993-12-21
3580568	Old Jones Bay	Old Jones Bay		19.26667	-81.3	H	BAY	KY		00				0		8	America/Cayman	1993-12-21
3580569	Old Crawl	Old Crawl		19.33333	-81.2	H	BAY	KY		00				0		21	America/Cayman	1993-12-21
3580570	North West Point	North West Point		19.36667	-81.41667	T	PT	KY		00				0		-9999	America/Cayman	1993-12-21
3580571	North Ward	North Ward		19.28333	-81.26667	P	PPL	KY		00				0		3	America/Cayman	1993-12-21
3580572	North Sound Estates	North Sound Estates		19.3	-81.3	P	PPL	KY		00				0		7	America/Cayman	1993-12-21
3580573	North Sound	North Sound	Grand Sound,North Sound	19.33333	-81.33333	H	LGN	KY	KY	00				0		-9999	America/Cayman	2012-01-18
3580574	North Sound	North Sound		19.35	-81.26667	H	BAY	KY		00				0		4	America/Cayman	1993-12-21
3580575	North Side	North Side	North Side,North Side Village	19.35	-81.2	P	PPLA	KY		10375970				1184		3	America/Cayman	2015-07-12
3580576	North Reef	North Reef		19.71667	-80	U	RFU	KY		00				0		-9999	America/Cayman	2014-08-09
3580577	North East Point	North East Point		19.75	-79.73333	T	PT	KY		00				0		49	America/Cayman	1993-12-21
3580578	North East Point	North East Point		19.33333	-81.1	T	PT	KY		00				0		7	America/Cayman	1993-12-21
3580579	North East Bay	North East Bay		19.75	-79.75	H	BAY	KY		00				0		44	America/Cayman	1993-12-21
3580580	Newlands	Newlands	Newland,Newlands	19.28333	-81.3	P	PPL	KY	KY	00				0		6	America/Cayman	2012-01-18
3580581	The Narrows	The Narrows		19.68333	-79.96667	H	CHN	KY		00				0		-9999	America/Cayman	1993-12-21
3580582	Muddy Foots	Muddy Foots		19.7	-79.96667	L	AREA	KY		00				0		4	America/Cayman	1993-12-21
3580583	Mount Pleasant	Mount Pleasant		19.38333	-81.4	P	PPL	KY		00				0		6	America/Cayman	1993-12-21
3580584	Morgans Harbour	Morgans Harbour		19.36667	-81.36667	H	HBR	KY		00				0		-9999	America/Cayman	1993-12-21
3580585	Morass	Morass		19.33333	-81.23333	L	AREA	KY		00				0		6	America/Cayman	1993-12-21
3580586	Moon Bay	Moon Bay		19.28333	-81.23333	H	BAY	KY		00				0		-9999	America/Cayman	1993-12-21
3580587	Molusca Heights	Molusca Heights		19.73333	-79.78333	P	PPL	KY		00				0		9	America/Cayman	1993-12-21
3580588	Miss Eden Bay	Miss Eden Bay		19.3	-81.38333	H	COVE	KY		00				0		4	America/Cayman	1993-12-21
3580589	Milords Bay	Milords Bay		19.26667	-81.31667	H	BAY	KY		00				0		-9999	America/Cayman	1993-12-21
3580590	Midland Acres	Midland Acres		19.3	-81.21667	P	PPL	KY		00				0		8	America/Cayman	1993-12-21
3580591	Meagre Bay Pond	Meagre Bay Pond		19.3	-81.23333	H	LK	KY		00				0		7	America/Cayman	1993-12-21
3580592	Matilda Ponds	Matilda Ponds		19.28333	-81.31667	H	LKS	KY		00				0		4	America/Cayman	1993-12-21
3580593	Mary’s Channel	Mary's Channel		19.70999	-79.99231	H	CHNM	KY		00				0		-9999	America/Cayman	2014-08-09
3580594	Marys Bay	Marys Bay		19.70886	-80.00021	H	BAY	KY		00				0		-9999	America/Cayman	2014-08-09
3580595	Malportas Pond	Malportas Pond	Malportas Pond	19.35	-81.2	H	LK	KY		00				0		3	America/Cayman	2014-04-06
3580596	Mallarbs Point	Mallarbs Point	Mallarbs Point	19.73333	-79.8	T	PT	KY		00				0		18	America/Cayman	2018-12-05
3580597	Main Channel	Main Channel		19.7	-79.96667	H	CHNM	KY		00				0		4	America/Cayman	1993-12-21
3580598	Main Channel	Main Channel		19.65	-80.06667	H	CHNM	KY		00				0		-9999	America/Cayman	1993-12-21
3580599	Main Channel	Main Channel		19.38333	-81.35	H	CHN	KY		00				0		-9999	America/Cayman	1993-12-21
3580600	Low Point	Low Point		19.31667	-81.4	T	PT	KY		00				0		-9999	America/Cayman	1993-12-21
3580601	Lower Valley	Lower Valley		19.28333	-81.28333	P	PPL	KY		00				0		6	America/Cayman	1993-12-21
3580602	Lower Spots	Lower Spots		19.68333	-80.06667	H	BAY	KY		00				0		4	America/Cayman	1993-12-21
3580603	Lower Rocky Point	Lower Rocky Point		19.66667	-80.05	T	PT	KY		00				0		2	America/Cayman	1993-12-21
3580604	Lower Bay	Lower Bay		19.28333	-81.1	H	BAY	KY		00				0		-9999	America/Cayman	1993-12-21
3580605	Long Point	Long Point		19.36667	-81.4	T	PT	KY		00				0		3	America/Cayman	1993-12-21
3580606	Long Point	Long Point		19.35	-81.18333	T	PT	KY		00				0		4	America/Cayman	1993-12-21
3580607	Long Coconut Tree Point	Long Coconut Tree Point	Long Coconut Point,Long Coconut Tree Point	19.35	-81.08333	T	PT	KY	KY	00				0		-9999	America/Cayman	2012-01-18
3580608	Long Bridge	Long Bridge		19.31667	-81.13333	L	AREA	KY		00				0		5	America/Cayman	1993-12-21
3580609	Little Spot Point	Little Spot Point	Little Spot Point	19.35	-81.16667	T	PT	KY		00				0		4	America/Cayman	2018-12-05
3580610	Little Sound	Little Sound		19.33333	-81.28333	H	BAY	KY		00				0		-9999	America/Cayman	1993-12-21
3580611	Little Salt Creek	Little Salt Creek		19.36667	-81.38333	H	INLT	KY		00				0		6	America/Cayman	1993-12-21
3580612	Little Pedro Point	Little Pedro Point		19.26667	-81.31667	T	PT	KY		00				0		-9999	America/Cayman	1993-12-21
3580613	Little Cayman Brac	Little Cayman Brac	Little Cayman Brac	19.75	-79.73333	T	ISL	KY		00				0		49	America/Cayman	2018-12-05
3580614	Little Cayman	Little Cayman	Caiman Menor,Caimán Menor,LYB,Litl Keiman,Little Cayman,Mali Kajman,Malij Kajman,Maly Kajman,Malyj Kajman,Mały Kajman,Pequena Caiman,Pequena Caimao,Pequena Caimão,Pequeña Caimán,Vostrau Litl-Kajman,lytl qyymn,ritorukeiman,xiao kai man,Λιτλ Κέιμαν,Востраў Літл-Кайман,Малий Кайман,Малый Кайман,ליטל קיימן,リトルケイマン,小开曼	19.68333	-80.05	T	ISL	KY		00				0		6	America/Cayman	2014-01-18
3580615	Little Cayman	Little Cayman		19.65	-80.25	S	AIRF	KY		00				0		-9999	America/Cayman	1993-12-21
3580616	Little Bluff Bay	Little Bluff Bay		19.35	-81.13333	H	BAY	KY		00				0		9	America/Cayman	1993-12-21
3580617	Little Bluff	Little Bluff		19.35	-81.15	T	CLF	KY		00				0		6	America/Cayman	1993-12-21
3580618	Lesser Caymans	Lesser Caymans		19.66667	-79.91667	T	ISLS	KY		00				0		-9999	America/Cayman	1993-12-21
3580620	Knob Hill	Knob Hill		19.68333	-79.88333	P	PPL	KY		00				0		2	America/Cayman	1993-12-21
3580621	Kitty Clover Land	Kitty Clover Land		19.28333	-81.28333	L	AREA	KY		00				0		6	America/Cayman	1993-12-21
3580622	John Bodden Bay	John Bodden Bay		19.26667	-81.33333	H	BAY	KY		00				0		-9999	America/Cayman	1993-12-21
3580623	Joe Conyer	Joe Conyer		19.28333	-81.2	H	BAY	KY		00				0		-9999	America/Cayman	1993-12-21
3580624	Jennifer Bay	Jennifer Bay	Jennifer Bay,Juniper Bay	19.7	-79.8	H	BAY	KY	KY	00				0		-9999	America/Cayman	2012-01-18
3580625	Jackson’s Pond	Jackson's Pond		19.69035	-80.06424	H	LK	KY		00				0		3	America/Cayman	2014-01-18
3580626	Jacksons Pond	Jacksons Pond		19.36667	-81.38333	H	LK	KY		00				0		6	America/Cayman	1993-12-21
3580627	Jackson’s Point	Jackson's Point	Jackson Point,Jackson's Point,Jackson’s Point	19.68333	-80.06667	T	PT	KY		00				0		4	America/Cayman	2012-01-18
3580628	Jackson’s Bay	Jackson's Bay		19.68934	-80.07055	H	BAY	KY		00				0		4	America/Cayman	2014-08-09
3580629	Jackson Point	Jackson Point		19.28117	-81.39277	T	PT	KY		00				0		7	America/Cayman	2014-04-10
3580630	Isaac’s Point	Isaac's Point		19.68333	-79.88333	T	PT	KY		00				0		2	America/Cayman	1993-12-21
3580631	Ironshore Point	Ironshore Point	Ironshore Point	19.3	-81.13333	T	PT	KY		00				0		6	America/Cayman	2018-12-05
3580632	Ireland Bluff	Ireland Bluff		19.28333	-81.23333	T	CLF	KY		00				0		-9999	America/Cayman	1993-12-21
3580633	Hutland	Hutland		19.35	-81.21667	P	PPL	KY		00				0		6	America/Cayman	1993-12-21
3580634	Hog Sty Bay	Hog Sty Bay		19.3	-81.38333	H	BAY	KY		00				0		4	America/Cayman	1993-12-21
3580635	High Rock Point	High Rock Point	High Rock Point	19.28333	-81.13333	T	PT	KY		00				0		-9999	America/Cayman	2018-12-05
3580636	High Rock Estates	High Rock Estates		19.28333	-81.13333	P	PPL	KY		00				0		-9999	America/Cayman	1993-12-21
3580637	High Rock	High Rock		19.28333	-81.13333	L	LCTY	KY		00				0		-9999	America/Cayman	1993-12-21
3580638	High Bluff	High Bluff		19.26667	-81.31667	T	CLF	KY		00				0		-9999	America/Cayman	1993-12-21
3580639	Hell	Hell		19.38333	-81.41667	P	PPL	KY		00				0		-9999	America/Cayman	1993-12-21
3580640	Head of Reef	Head of Reef		19.26667	-81.3	H	RF	KY		00				0		8	America/Cayman	1993-12-21
3580641	Head of Bay	Head of Bay		19.6687	-80.0672	P	PPL	KY		00				0		7	America/Cayman	2014-08-09
3580642	Head of Barkers	Head of Barkers	Head of Barkers	19.38333	-81.36667	T	PT	KY		00				0		3	America/Cayman	2018-12-05
3580643	Hawkesbill Bay	Hawkesbill Bay		19.7	-79.78333	H	BAY	KY		00				0		-9999	America/Cayman	1993-12-21
3580644	Hastings Rock	Hastings Rock		19.25	-81.4	T	RK	KY		00				0		-9999	America/Cayman	1993-12-21
3580645	Half Way Pond	Half Way Pond		19.28333	-81.36667	P	PPLL	KY		00				0		2	America/Cayman	1993-12-21
3580646	Half Way Ground	Half Way Ground		19.71667	-79.81667	L	LCTY	KY		00				0		23	America/Cayman	1993-12-21
3580647	Half Moon Bay	Half Moon Bay		19.28333	-81.16667	P	PPL	KY		00				0		-9999	America/Cayman	1993-12-21
3580648	Gun Bluff	Gun Bluff		19.3	-81.1	T	PT	KY		00				0		-9999	America/Cayman	1993-12-21
3580649	Gun Bluff	Gun Bluff		19.3	-81.08333	T	CLF	KY		00				0		-9999	America/Cayman	1993-12-21
3580650	Gun Bay	Gun Bay	Gun Bay,Gun Bay Village	19.31667	-81.1	P	PPL	KY	KY	00				0		5	America/Cayman	2012-01-18
3580651	Great Pedro Point	Great Pedro Point	Great Pedro Point	19.26667	-81.28333	T	PT	KY		00				0		11	America/Cayman	2018-12-05
3580652	Great Bluff	Great Bluff		19.35	-81.11667	T	CLF	KY		00				0		6	America/Cayman	1993-12-21
3580653	Great Beach	Great Beach		19.31667	-81.13333	L	AREA	KY		00				0		5	America/Cayman	1993-12-21
3580654	Grape Tree Point	Grape Tree Point	Grape Tree Point	19.35	-81.23333	T	PT	KY		00				0		7	America/Cayman	2018-12-05
3580655	Grape Tree Bay	Grape Tree Bay		19.7	-80.05	H	BAY	KY		00				0		7	America/Cayman	1993-12-21
3580656	Grand Cayman	Grand Cayman	GCM,Grand Cayman	19.32281	-81.2487	T	ISL	KY		00				0		6	America/Cayman	2014-01-05
3580657	Governors Creek	Governors Creek		19.35	-81.38333	H	STM	KY		00				0		9	America/Cayman	1993-12-21
3580658	Gorling Bluff	Gorling Bluff		19.3	-81.1	T	CLF	KY		00				0		-9999	America/Cayman	1993-12-21
3580659	Goat Bay	Goat Bay		19.71667	-79.75	H	BAY	KY		00				0		-9999	America/Cayman	1993-12-21
3580660	Sir Charles Kirkconnell International Airport	Sir Charles Kirkconnell International Airport	CYB,Cayman Brac Airport,Gerrard Smith International Airport,MWCB,Sir Charles Kirkconnell International Airport	19.6872	-79.87996	S	AIRP	KY		00				0		5	America/Cayman	2014-01-18
3580661	George Town	George Town	Corctaun,Dzhordzh Taun,Dzhordzhtaun,Dzordz Taun,Dzordztaun,Dzordztaunas,Džordžtaunas,GCM,George Town,George Town pa Caymanoyane,George Town på Caymanøyane,Georgetown,Georgurbo,Gorad Dzhordzhtaun,Tzortz Taoun,cxrc thawn,gwrg tʼwn,jarj tavun,jojitaun,jorjata'una,jwrj tawn,qiao zhi dui,qiao zhi dun,Τζωρτζ Τάουν,Џорџ Таун,Џорџтаун,Горад Джорджтаўн,Джордж Таун,Джорджтаун,גורג טאון,جارج ٹاؤن، جزائر کیمین,جرج‌تاون، جزایر کیمن,جورج تاون,जॉर्जटाउन,ஜார்ஜ் டவுன்,จอร์จทาวน์,ჯორჯტაუნი,ジョージタウン,喬治敦,조지타운	19.2866	-81.37436	P	PPLC	KY		10346796				29370		3	America/Cayman	2015-07-13
3580662	Further Ground	Further Ground		19.33333	-81.2	L	LCTY	KY		00				0		21	America/Cayman	1993-12-21
3580663	Frenchman’s Fort	Frenchman's Fort		19.69395	-79.87906	P	PPL	KY		00				0		5	America/Cayman	2014-01-18
3580664	Frenchman Point	Frenchman Point		19.7	-79.88333	T	PT	KY		00				0		5	America/Cayman	1993-12-21
3580665	Frank Sound	Frank Sound		19.28333	-81.18333	H	SD	KY		00				0		-9999	America/Cayman	1993-12-21
3580666	Frank Sound	Frank Sound		19.3	-81.18333	L	LCTY	KY		00				0		-9999	America/Cayman	1993-12-21
3580667	Foster Land	Foster Land		19.73333	-79.73333	L	LCTY	KY		00				0		-9999	America/Cayman	1993-12-21
3580668	The Flats	The Flats		19.65976	-80.07454	U	FLTU	KY		00				0		1	America/Cayman	2014-08-09
3580669	Flat Rocks	Flat Rocks		19.38333	-81.35	T	RKS	KY		00				0		-9999	America/Cayman	1993-12-21
3580670	Fisherman’s Rock	Fisherman's Rock	Fisherman Rock,Fisherman's Rock,Fisherman’s Rock	19.36667	-81.33333	T	RK	KY		00				0		-9999	America/Cayman	2012-01-18
3580671	Fish Channel	Fish Channel		19.7049	-80.01034	H	CHNM	KY		00				0		2	America/Cayman	2014-08-09
3580672	Finger Cay	Finger Cay		19.35	-81.26667	S	DIKE	KY		00				0		4	America/Cayman	1993-12-21
3580673	Eden Rocks	Eden Rocks		19.28333	-81.4	T	RKS	KY		00				0		-9999	America/Cayman	1993-12-21
3580674	East Rocky Point	East Rocky Point		19.70629	-79.96211	T	PT	KY		00				0		7	America/Cayman	2014-08-09
3580675	East Point	East Point		19.7	-79.96667	T	PT	KY		00				0		4	America/Cayman	1993-12-21
3580676	East Point	East Point		19.3	-81.1	T	PT	KY		00				0		-9999	America/Cayman	1993-12-21
3580677	East End Channel	East End Channel	East Channel,East End Channel	19.3	-81.08333	H	CHN	KY	KY	00				0		-9999	America/Cayman	2012-01-18
3580678	East End	East End	East End,Old Isaacs	19.3	-81.11667	P	PPLA	KY		10375971				1639		8	America/Cayman	2015-07-12
3580679	Dusty Place	Dusty Place		19.38333	-81.4	P	PPL	KY		00				0		6	America/Cayman	1993-12-21
3580680	Duck Pond Cay	Duck Pond Cay	Duck Pond Cay	19.3	-81.3	T	ISL	KY		00				0		7	America/Cayman	2018-12-05
3580681	Duck Pond Bight	Duck Pond Bight		19.3	-81.3	H	BAY	KY		00				0		7	America/Cayman	1993-12-21
3580682	Driftwood Village	Driftwood Village		19.35	-81.23333	P	PPL	KY		00				0		7	America/Cayman	1993-12-21
3580683	Dowry Pond	Dowry Pond		19.33333	-81.18333	H	PND	KY		00				0		8	America/Cayman	1993-12-21
3580684	Double Head	Double Head		19.4	-81.38333	T	PT	KY		00				0		1	America/Cayman	1993-12-21
3580685	Dolphin Point	Dolphin Point		19.36667	-81.4	T	PT	KY		00				0		3	America/Cayman	1993-12-21
3580686	Dog City	Dog City		19.3	-81.38333	P	PPLX	KY		00				0		4	America/Cayman	1993-12-21
3580687	Diggarys Point	Diggarys Point	Diggarys Point	19.68333	-80.01667	T	PT	KY		00				0		-9999	America/Cayman	2018-12-05
3580688	Dick Sessingers Bay	Dick Sessingers Bay		19.68333	-79.88333	H	BAY	KY		00				0		2	America/Cayman	1993-12-21
3580689	Dennis Point	Dennis Point		19.68333	-79.86667	T	PT	KY		00				0		-9999	America/Cayman	1993-12-21
3580690	Deep Well	Deep Well		19.7	-79.76667	H	BAY	KY		00				0		-9999	America/Cayman	1993-12-21
3580691	Deadmans Point	Deadmans Point		19.83333	-79.71667	T	PT	KY		00				0		-9999	America/Cayman	1993-12-21
3580692	Creek	Creek		19.75	-79.76667	P	PPL	KY		00				0		-9999	America/Cayman	1993-12-21
3580693	Crawl Bay Channel	Crawl Bay Channel		19.70151	-80.02553	H	CHNM	KY		00				0		-9999	America/Cayman	2014-08-09
3580694	Crawl Bay	Crawl Bay		19.70716	-80.02501	H	BAY	KY		00				0		-9999	America/Cayman	2014-08-09
3580695	Crawl Bay	Crawl Bay		19.68333	-79.86667	H	BAY	KY		00				0		-9999	America/Cayman	1993-12-21
3580696	Crawl Bay	Crawl Bay		19.28333	-81.35	H	BAY	KY		00				0		6	America/Cayman	1993-12-21
3580697	Cotton Tree Bay	Cotton Tree Bay		19.7	-79.86667	H	BAY	KY		00				0		7	America/Cayman	1993-12-21
3580698	Cottage Point	Cottage Point		19.28333	-81.16667	T	PT	KY		00				0		-9999	America/Cayman	1993-12-21
3580699	Cork Landing	Cork Landing		19.68375	-80.03244	P	PPL	KY		00				0		5	America/Cayman	2014-08-09
3580700	Corkers Reef	Corkers Reef		19.28333	-81.11667	H	RF	KY		00				0		-9999	America/Cayman	1993-12-21
3580701	Coral Gables	Coral Gables		19.36667	-81.41667	P	PPL	KY		00				0		-9999	America/Cayman	1993-12-21
3580702	Conch Point	Conch Point		19.4	-81.38333	T	PT	KY		00				0		1	America/Cayman	1993-12-21
3580703	Colliers Pond	Colliers Pond		19.33333	-81.08333	H	LK	KY		00				0		-9999	America/Cayman	1993-12-21
3580704	Colliers Point	Colliers Point	Colliers Point,East Point	19.33333	-81.08333	T	PT	KY	KY	00				0		-9999	America/Cayman	2012-01-18
3580705	Colliers Channel	Colliers Channel		19.35	-81.08333	H	CHN	KY		00				0		-9999	America/Cayman	1993-12-21
3580706	Colliers Cay	Colliers Cay		19.33333	-81.08333	T	RK	KY		00				0		-9999	America/Cayman	1993-12-21
3580707	Colliers Bay	Colliers Bay		19.33333	-81.08333	H	BAY	KY		00				0		-9999	America/Cayman	1993-12-21
3580708	Colliers	Colliers		19.33333	-81.08333	L	LCTY	KY		00				0		-9999	America/Cayman	1993-12-21
3580709	Colliers	Colliers		19.33333	-81.08333	L	AREA	KY		00				0		-9999	America/Cayman	1993-12-21
3580710	Coconut Walk Bay	Coconut Walk Bay		19.26667	-81.38333	H	BAY	KY		00				0		10	America/Cayman	1993-12-21
3580711	Clarinda Beach	Clarinda Beach	Clarinda Beach	19.3	-81.15	T	BCH	KY		00				0		7	America/Cayman	2018-12-05
3580712	Charles Bight	Charles Bight	Charles Bay,Charles Bight	19.68333	-80.01667	H	BAY	KY	KY	00				0		-9999	America/Cayman	2012-01-18
3580713	Channel Land	Channel Land		19.33333	-81.21667	L	LCTY	KY		00				0		7	America/Cayman	1993-12-21
3580714	Channel Bay	Channel Bay		19.68333	-79.88333	H	BAY	KY		00				0		2	America/Cayman	1993-12-21
3580715	The Channel	The Channel		19.33333	-81.2	H	CHNM	KY		00				0		21	America/Cayman	1993-12-21
3580716	Cedar Point	Cedar Point		19.7	-79.83333	T	PT	KY		00				0		19	America/Cayman	1993-12-21
3580717	Cayman Palms	Cayman Palms		19.26667	-81.26667	P	PPL	KY		00				0		14	America/Cayman	1993-12-21
3580718	Cayman Islands	Cayman Islands	'Otumotu Keimeni,Awon Erekusu Kaiman,Azua Ngunde  Kaimaeni,Bama Gun,Bisanga bya Kayima,Bisanga bya Kayíma,Bizinga ebya Kayimaani,Caegman Iegland,Cayman,Cayman Adalari,Cayman Adaları,Cayman Gung-do,Cayman Gùng-dō̤,Cayman Islands,Cayman Kun-to,Cayman Kûn-tó,Cayman Supɔws,Cayman-sullot,Caymaneilanden,Caymaneyjar,Caymanoearna,Caymanoerne,Caymanoyane,Caymanoyene,Caymanoyggjar,Caymanoyggjarnar,Caymansaaret,Caymanöarna,Caymanøerne,Caymanøyane,Caymanøyene,Cægman Īegland,Duuɗe Kaymaa,Gzejjer Kajmani,Gżejjer Kajmani,Ibirwa bya Kayimani,Ibirwa bya Keyimani,Iles Caiman,Iles Caimanes,Iles Caimans,Iles Cayimans,Iles Caïmanes,Ilhas Caiman,Ilhas Cayman,Illas Caiman,Illas Caimán,Illes Caiman,Inizi Cayman,Inslas Cayman,Insulae Caimanenses,Insulas de Caiman,Insulele Cayman,Insuli Kaiman,Ishujt Cayman,Islas Caiman,Islas Caimán,Islles Caiman,Islles Caimán,Isoe Cayman,Isole Caiman,Isole Cayman,Kaaimaneilanden,Kaaimanseilande,Kaiman Eilunen,Kaiman Uharteak,Kaiman uharteak,Kaimaninselen,Kaimaninseln,Kaimanisaared,Kaimanu Salas,Kaimanu salas,Kaimanu salos,Kaimanų salos,Kajman araldary,Kajman oshmaotyvla,Kajman utrauzary,Kajman-szigetek,Kajmana Insularo,Kajmanavy astravy,Kajmanie ostrovy,Kajmanovi ostrovi,Kajmanovy Ostrova,Kajmanska Ostrva,Kajmanska ostrva,Kajmanske ostrovy,Kajmanski Ostrovi,Kajmanski Otoci,Kajmanski otoci,Kajmanski otoki,Kajmanské ostrovy,Kajmany,Kajmany sakuadaekhtae,Kajmán-szigetek,Kaojmaanseilen,Kapuloan Cayman,Kapuloan Kayman,Kapuluang Kayman,Kapuropud-an Cayman,Kayman Adalari,Kayman Adaları,Kayman Isles,Kayman adalari,Kayman adaları,Kayman orollari,Kayman ƒudomekpowo nutome,Kaymanyan kgziner,Keiman Nisoi,Kejmanoj,Kemanfo Islands,Kepulauan Cayman,Kepulauan Kayman,Lutanda lua Kayima,Nisoi Keiman,Nosy Kayman,Oileain na gCadhman,Oileáin na gCadhman,Orileede Etiokun Kamani,Orílẹ́ède Etíokun Kámánì,Ostrova Kajman,Quan GJao Cayman,Quan gao Cayman,Quần Đảo Cayman,Quần đảo Cayman,Tsibiran Kaiman,Visiwa vya Kayman,Ynysoedd Caiman,Ynysoedd Cayman,Ynysow Kayman,Zvitsuwa zveCayman,i-Cayman Islands,jzayr kiymn,jzayr kymn,jzayr kymyn,jzr alkaymn,jzr kayman,kai man qun dao,kayamyana dbipamala,kayman taqym yarallyry,keimaen jedo,keimaenjedo,keiman zhu dao,kemaina dvipasamuha,keman divulu,keman dvipagalu,keman dvipapunja,keman jazira,keman tivukal,kemana bete,kemana dvipasamuha,kemana tapu,kemen tivukal,kemyan dbipapunja,kemyana dbipapunja,keyamana tapu,keyamena a'ilendsa,Àwọn Erékùṣù Káímàn,Âzûâ Ngundë  Kaimäni,Ìsole Caiman,Îles Caïman,Îles Caïmanes,Îles Caïmans,ʻOtumotu Keimeni,Κέιμαν Νήσοι,Νήσοι Κέιμαν,Кайман аралдары,Кайман ошмаотывлӓ,Кайман утрауҙары,Кайманавы астравы,Кайманийн гӀайренаш,Кайманови острови,Каймановы Острова,Кайманові острови,Кайманы сакъадæхтæ,Кајманска Острва,Кајмански Острови,Острова Кайман,Կայմանյան կղզիներ,איי קיימן,جزائر کیمین,جزایر کِیمن,جزایر کیمن,جزر الكايمن,جزر كايمان,دوورگەکانی کەیمەن,كايمان تاقىم ئاراللىرى,کیمین آئلینڈز,کیمین جزیرے,ކޭމަން ޖަޒީރާ,केमन द्वीपसमूह,केमन बेटे,केमैन द्वीपसमूह,केयमान टापु,কায়ম্যান দ্বীপমালা,কেম্যান দ্বীপপুঞ্জ,ਕੇਮਨ ਟਾਪੂ,કેયમેન આઇલૅંડ્સ,କେମନ୍ ଦ୍ଵୀପପୁଞ୍ଜ,କେମ୍ୟାନ୍ ଦ୍ବୀପପୁଞ୍ଜ,கேமன் தீவுகள்,கேமென் தீவுகள்,కేమాన్ దీవులు,ಕೇಮನ್ ದ್ವೀಪಗಳು,കേയ്മാന്‍ ദ്വീപുകള്‍,หมู่เกาะเคย์แมน,ཁེ་མེན་གླིང་ཕྲན།,ကေမန် ကျွန်းစု,კაიმანის კუნძულები,ካይማን ደሴቶች,ケイマン諸島,开曼群岛,開曼羣島,開曼群島,케이맨 제도,케이맨제도	19.5	-80.66667	A	PCLD	KY	KY	00				44270		-9999	America/Cayman	2017-11-05
3580719	Cayman Islands	Cayman Islands	Cayman Islands,Islas Caiman,Islas Caimán,The Caymans	19.5	-80.66667	T	ISLS	KY	KY	00				0		-9999	America/Cayman	2012-01-18
3580720	Cayman Brac Island	Cayman Brac Island	CYB,Cayman Brac,Cayman Brac Island,Ile de Cayman Brac,Île de Cayman Brac	19.71667	-79.81667	T	ISL	KY		00				0		23	America/Cayman	2014-01-18
3580721	Cat Head Bay	Cat Head Bay		19.71667	-79.73333	H	BAY	KY		00				0		-9999	America/Cayman	1993-12-21
3580722	Callabash Spot	Callabash Spot		19.7	-79.96667	L	LCTY	KY		00				0		4	America/Cayman	1993-12-21
3580723	Brinkleys	Brinkleys		19.35	-81.23333	P	PPL	KY		00				0		7	America/Cayman	1993-12-21
3580724	Breezy Castle	Breezy Castle		19.3	-81.36667	P	PPL	KY		00				0		4	America/Cayman	1993-12-21
3580725	Breakers	Breakers		19.3	-81.2	P	PPL	KY		00				0		6	America/Cayman	1993-12-21
3580726	Breaker Point	Breaker Point		19.3	-81.2	T	PT	KY		00				0		6	America/Cayman	1993-12-21
3580727	Bowse Land	Bowse Land	Bowse Land	19.35	-81.25	T	PEN	KY		00				0		7	America/Cayman	2018-12-05
3580728	Bowse Bluff	Bowse Bluff		19.36667	-81.26667	T	CLF	KY		00				0		3	America/Cayman	1993-12-21
3580729	Botabano	Botabano		19.38333	-81.38333	P	PPL	KY		00				0		4	America/Cayman	1993-12-21
3580730	Booby Point	Booby Point		19.75	-79.75	T	PT	KY		00				0		44	America/Cayman	1993-12-21
3580731	Booby Point	Booby Point		19.33333	-81.3	T	PT	KY		00				0		-9999	America/Cayman	1993-12-21
3580732	Booby Cay	Booby Cay		19.33333	-81.3	T	ISL	KY		00				0		-9999	America/Cayman	1993-12-21
3580733	Bodden Town	Bodden Town	Bodden,Bodden Town	19.27647	-81.2542	P	PPLA	KY		10375969				10341		6	America/Cayman	2015-07-12
3580734	Bodden Bay	Bodden Bay		19.26667	-81.25	H	BAY	KY		00				0		-9999	America/Cayman	1993-12-21
3580735	Boatswain Point	Boatswain Point		19.38333	-81.41667	T	PT	KY		00				0		-9999	America/Cayman	1993-12-21
3580736	Boatswain Bay	Boatswain Bay		19.38333	-81.41667	H	BAY	KY		00				0		-9999	America/Cayman	1993-12-21
3580737	Bluff Bay	Bluff Bay		19.35	-81.13333	H	BAY	KY		00				0		9	America/Cayman	1993-12-21
3580738	Blowing Holes	Blowing Holes		19.68333	-79.88333	T	BLHL	KY		00				0		2	America/Cayman	1993-12-21
3580739	Blossom Point	Blossom Point		19.66667	-80.08333	P	PPL	KY		00				0		7	America/Cayman	1993-12-21
3580740	Bloody Bay Point	Bloody Bay Point		19.67973	-80.08574	T	PT	KY		00				0		4	America/Cayman	2014-08-09
3580741	Bloody Bay	Bloody Bay		19.68328	-80.08153	H	BAY	KY		00				0		4	America/Cayman	2014-08-09
3580742	Blakes	Blakes		19.3	-81.1	P	PPL	KY		00				0		-9999	America/Cayman	1993-12-21
3580743	Birch Tree Hill	Birch Tree Hill		19.38333	-81.4	P	PPL	KY		00				0		6	America/Cayman	1993-12-21
3580744	Bill Eden Point	Bill Eden Point	Bill Eden Point	19.26667	-81.3	T	PT	KY		00				0		8	America/Cayman	2018-12-05
3580745	The Bight	The Bight		19.73333	-79.78333	H	BGHT	KY		00				0		9	America/Cayman	1993-12-21
3580746	Big Channel	Big Channel		19.71435	-79.97017	H	CHNM	KY		00				0		1	America/Cayman	2014-08-09
3580747	Big Channel	Big Channel		19.38333	-81.36667	H	CHNM	KY		00				0		3	America/Cayman	1993-12-21
3580748	Betty Bay Pond	Betty Bay Pond		19.3	-81.2	H	LK	KY		00				0		6	America/Cayman	1993-12-21
3580749	Betty Bay Point	Betty Bay Point	Betty Bay Point	19.28333	-81.2	T	PT	KY		00				0		-9999	America/Cayman	2018-12-05
3580750	Bessy Howard Cay	Bessy Howard Cay	Bessy Howard Cay	19.75	-79.71667	T	ISL	KY		00				0		-9999	America/Cayman	2018-12-05
3580751	Belford Estates	Belford Estates		19.28333	-81.23333	P	PPL	KY		00				0		-9999	America/Cayman	1993-12-21
3580752	Beach Point	Beach Point		19.7	-79.83333	T	PT	KY		00				0		19	America/Cayman	1993-12-21
3580753	Beach Bay	Beach Bay		19.26667	-81.26667	H	BAY	KY		00				0		14	America/Cayman	1993-12-21
3580754	Battle Ground	Battle Ground		19.38333	-81.4	P	PPL	KY		00				0		6	America/Cayman	1993-12-21
3580755	Battle Ground	Battle Ground		19.73333	-79.75	L	LCTY	KY		00				0		36	America/Cayman	1993-12-21
3580756	Bats Cave Beach	Bats Cave Beach	Bats Cave Beach	19.26667	-81.31667	T	BCH	KY		00				0		-9999	America/Cayman	2018-12-05
3580757	Barkers	Barkers	Barkers	19.38333	-81.36667	T	PEN	KY		00				0		3	America/Cayman	2018-12-05
3580758	Banksville	Banksville		19.7	-79.85	P	PPL	KY		00				0		16	America/Cayman	1993-12-21
3580759	Bamboo Bay	Bamboo Bay		19.71667	-79.8	H	BAY	KY		00				0		21	America/Cayman	1993-12-21
3580760	Anchor Point	Anchor Point	Anchor Point,Anchors Point	19.35	-81.13333	T	PT	KY	KY	00				0		9	America/Cayman	2012-01-18
3580761	Anchorage Bay	Anchorage Bay		19.66667	-80.11667	H	BAY	KY		00				0		-9999	America/Cayman	1993-12-21
3580762	Ally Land	Ally Land		19.33333	-81.11667	L	LCTY	KY		00				0		8	America/Cayman	1993-12-21
6299934	Grand Cayman City	Grand Cayman City	MWCG	19.3	-81.36667	S	STNM	KY						0		4	America/Cayman	2006-10-29
6462368	Seven Mile Beach Resort	Seven Mile Beach Resort		19.3098	-81.391	S	HTL	KY						0		-9999	America/Cayman	2007-04-13
6465142	Brac Reef Beach Resort	Brac Reef Beach Resort		19.6967	-79.8756	S	HTL	KY						0		5	America/Cayman	2007-04-13
6469954	Beach Club Colony Resort All Inclusive	Beach Club Colony Resort All Inclusive		19.3236	-81.3919	S	HTL	KY						0		-9999	America/Cayman	2007-04-13
6497980	Sunset House	Sunset House		19.27923	-81.39161	S	HTL	KY						0		7	America/Cayman	2014-01-05
6499078	Compass Point Dive Resort	Compass Point Dive Resort		19.3293	-81.2694	S	HTL	KY						0		-9999	America/Cayman	2007-04-14
6500227	Grand Cayman Marriott Beach Resort	Grand Cayman Marriott Beach Resort		19.3163	-81.3919	S	HTL	KY						0		-9999	America/Cayman	2007-04-14
6505025	Villas Pappagallo	VILLAS PAPPAGALLO		19.3194	-81.2537	S	HTL	KY						0		5	America/Cayman	2007-04-13
6505030	Island Pine Villas	ISLAND PINE VILLAS		19.3479	-81.2383	S	HTL	KY						0		7	America/Cayman	2007-04-13
6506504	Silver Sands Condominiums	SILVER SANDS CONDOMINIUMS		19.3479	-81.2383	S	HTL	KY						0		7	America/Cayman	2007-04-13
6508740	Cayman Reef	CAYMAN REEF		19.3194	-81.2537	S	HTL	KY						0		5	America/Cayman	2007-04-13
6508987	Indies Suites	INDIES SUITES		19.3479	-81.2383	S	HTL	KY						0		7	America/Cayman	2007-04-13
6509174	Lacovia Condos	LACOVIA CONDOS		19.3479	-81.2383	S	HTL	KY						0		7	America/Cayman	2007-04-13
6523523	Aqua Bay Club	AQUA BAY CLUB		19.3194	-81.2537	S	HTL	KY						0		5	America/Cayman	2007-04-14
6524322	Treasure Island Condominiums	TREASURE ISLAND CONDOMINIUMS		19.3194	-81.2537	S	HTL	KY						0		5	America/Cayman	2007-04-14
6529448	The Reef Resort	THE REEF RESORT		19.325	-81.1138	S	HTL	KY						0		6	America/Cayman	2007-04-14
6529843	George Town Villas	GEORGE TOWN VILLAS		19.3479	-81.2383	S	HTL	KY						0		7	America/Cayman	2007-04-14
6532247	Divi Tiara Beach Resort	DIVI TIARA BEACH RESORT		19.7223	-79.8205	S	HTL	KY						0		5	America/Cayman	2007-04-14
7730680	Edward Bodden Airfield	Edward Bodden Airfield	Aeroport Edward Bodden,Aéroport Edward Bodden,Edward Bodden Airfield,LYB,Little Cayman Airport,MWCL	19.66005	-80.0878	S	AIRP	KY						0		7	America/Cayman	2014-01-18
8689196	Creek	Creek		19.74167	-79.76667	A	ADM1H	KY		00				0		19	America/Cayman	2014-01-19
8689197	Eastern	Eastern	Eastern,Eastern District	19.31667	-81.13333	A	ADM1H	KY		00				0		5	America/Cayman	2014-01-19
8689198	Midland	Midland	Midland,Midland District	19.31667	-81.23333	A	ADM1H	KY		00				0		4	America/Cayman	2014-01-19
8689199	South Town	South Town		19.69167	-80.0375	A	ADM1H	KY		00				0		9	America/Cayman	2014-01-19
8689200	Spot Bay	Spot Bay		19.75	-79.74167	A	ADM1H	KY		00				0		43	America/Cayman	2014-01-19
8689201	Stake Bay	Stake Bay		19.70417	-79.85	A	ADM1H	KY		00				0		7	America/Cayman	2014-01-19
8689202	West End	West End		19.68611	-79.88889	A	ADM1H	KY		00				0		3	America/Cayman	2014-01-19
8689203	Western	Western	Western,Western District	19.30833	-81.375	A	ADM1H	KY		00				0		6	America/Cayman	2014-01-19
9241039	Rum Point	Rum Point		19.36415	-81.26145	P	PPL	KY						0		7	America/Cayman	2014-07-19
9294253	Booby Pond	Booby Pond		19.66706	-80.07332	H	PND	KY						0		3	America/Cayman	2014-08-09
9294254	Moore Lake	Moore Lake		19.67019	-80.07853	H	LK	KY						0		8	America/Cayman	2014-08-09
9294255	Buldozer Pond	Buldozer Pond		19.6609	-80.09681	H	PND	KY		00				0		3	America/Cayman	2014-08-09
9294256	Bittern Pond	Bittern Pond		19.66015	-80.10267	H	PND	KY						0		3	America/Cayman	2014-08-09
9294257	Lighthouse Pond	Lighthouse Pond		19.65976	-80.10853	H	PND	KY						0		5	America/Cayman	2014-08-09
9294258	Little Cayman	Little Cayman		19.66114	-80.10984	P	PPLA	KY		10375972				0		6	America/Cayman	2015-07-12
9294259	Easterly Ponds	Easterly Ponds		19.6987	-79.97766	H	PNDS	KY						0		6	America/Cayman	2014-08-09
9294260	Sandy Pond	Sandy Pond		19.70023	-79.96669	H	PND	KY						0		4	America/Cayman	2014-08-09
9294261	Pirate's Point	Pirate's Point		19.66	-80.09979	T	PT	KY		00				0		5	America/Cayman	2014-08-09
9294262	Westerly Ponds	Westerly Ponds		19.65974	-80.10535	H	PNDS	KY						0		7	America/Cayman	2014-08-09
9294263	Charles Bight	Charles Bight		19.69686	-79.98703	H	BGHT	KY						0		1	America/Cayman	2014-08-09
9294264	Grape Tree Pond	Grape Tree Pond		19.69823	-80.04905	H	PND	KY						0		4	America/Cayman	2014-08-09
9350643	Rum Point Beach	Rum Point Beach		19.3729	-81.27046	T	BCH	KY						0		5	America/Cayman	2014-08-14
9963022	The Ramada Grand Caymanian Resort	The Ramada Grand Caymanian Resort		19.29023	-81.38929	S	HTL	KY						0		5	America/Cayman	2015-01-19
9963023	Reef Resort	Reef Resort		19.30207	-81.36406	S	HTL	KY						0		7	America/Cayman	2015-01-19
9963024	Comfort Suites Cayman	Comfort Suites Cayman		19.30892	-81.37946	S	HTL	KY						0		13	America/Cayman	2015-01-19
9963025	Grand Cayman Beach Suites	Grand Cayman Beach Suites		19.3022	-81.3857	S	HTL	KY						0		-9999	America/Cayman	2015-01-19
9963026	Sunshine Suites Resort	Sunshine Suites Resort		19.34018	-81.37823	S	HTL	KY						0		6	America/Cayman	2015-01-19
9963027	Ritz Carlton Grand Cayman	Ritz Carlton Grand Cayman		19.33591	-81.38089	S	HTL	KY						0		4	America/Cayman	2015-01-19
9969450	Westin Grand Cayman Seven Mile Beach Resort & Spa	Westin Grand Cayman Seven Mile Beach Resort & Spa		19.3399	-81.38067	S	HTL	KY						0		12	America/Cayman	2015-01-22
9969662	Holiday Inn Resort Grand Cayman	Holiday Inn Resort Grand Cayman		19.34541	-81.36292	S	HTL	KY						0		4	America/Cayman	2015-01-22
10055315	Morritts Tortuga Club And Resort	Morritts Tortuga Club And Resort		19.32217	-81.24087	S	HTL	KY						0		6	America/Cayman	2015-02-09
10056209	Westin Casuarina Resort Grand Cayman	Westin Casuarina Resort Grand Cayman		19.33934	-81.38069	S	HTL	KY						0		12	America/Cayman	2015-02-09
10115827	Grandview Condominiums	Grandview Condominiums		19.31277	-81.38573	S	HTL	KY						0		5	America/Cayman	2015-02-24
10120798	Westin Casuarina Resort & Spa	Westin Casuarina Resort & Spa		19.33928	-81.38075	S	HTL	KY						0		12	America/Cayman	2015-02-26
10120799	Comfort Suites & Resort	Comfort Suites & Resort		19.32773	-81.38203	S	HTL	KY						0		11	America/Cayman	2015-02-26
10174500	Grand Cayman Marroitt Beach	Grand Cayman Marroitt Beach		19.3175	-81.38419	S	HTL	KY						0		9	America/Cayman	2015-03-27
10175556	Holiday Inn Resort Grand Cayma	Holiday Inn Resort Grand Cayma		19.3447	-81.36348	S	HTL	KY						0		4	America/Cayman	2015-03-30
10230322	Villas Of The Galleon	Villas Of The Galleon		19.33743	-81.38084	S	HTL	KY						0		8	America/Cayman	2015-04-21
10244032	Hotel New York Marriott Marquis	Hotel New York Marriott Marquis		19.31698	-81.38385	S	HTL	KY						0		6	America/Cayman	2015-05-05
10252632	Coral Stone Club	Coral Stone Club		19.33453	-81.38059	S	HTL	KY						0		7	America/Cayman	2015-05-08
10252633	Caribbean Club	Caribbean Club		19.33115	-81.38115	S	HTL	KY						0		8	America/Cayman	2015-05-08
10252634	Britannia Villas	Britannia Villas		19.32707	-81.37487	S	HTL	KY						0		9	America/Cayman	2015-05-08
10252636	Sunset Cove	Sunset Cove		19.31413	-81.38392	S	HTL	KY						0		10	America/Cayman	2015-05-08
10252637	Seven Mile Beach Resort and Club	Seven Mile Beach Resort and Club		19.31639	-81.38325	S	HTL	KY						0		7	America/Cayman	2015-05-08
10252655	Castaways Cayman Beach Resort	Castaways Cayman Beach Resort		19.34512	-81.08996	S	HTL	KY						0		6	America/Cayman	2015-05-08
10283398	The Oval Cricket Ground	The Oval Cricket Ground		19.28879	-81.3727	S	ATHF	KY						0		3	America/Cayman	2015-05-21
10283399	Ft. George Ruins	Ft. George Ruins		19.29669	-81.38301	S	RUIN	KY						0		3	America/Cayman	2015-05-21
10283400	1919 Peace Memorial	1919 Peace Memorial		19.29664	-81.38158	S	MNMT	KY						0		9	America/Cayman	2015-05-21
10343703	Comfort Suites Seven Mile Beach	Comfort Suites Seven Mile Beach		19.31689	-81.38374	S	HTL	KY						0		7	America/Cayman	2015-06-16
10346796	George Town	George Town		19.28908	-81.36981	A	ADM1	KY		10346796				27704		1	America/Cayman	2015-07-12
10375968	West Bay	West Bay		19.38039	-81.38869	A	ADM1	KY		10375968				11269		5	America/Cayman	2015-07-11
10375969	Bodden Town	Bodden Town		19.2821	-81.25797	A	ADM1	KY		10375969				10341		8	America/Cayman	2015-11-27
10375970	North Side	North Side		19.34824	-81.20849	A	ADM1	KY		10375970				1437		7	America/Cayman	2015-07-11
10375971	East End	East End		19.29976	-81.11052	A	ADM1	KY		10375971				1369		4	America/Cayman	2015-07-11
10375972	Sister Island	Sister Island	Cayman Brac,Little Cayman,Sister Island	19.72195	-79.78958	A	ADM1	KY		10375972				0		30	America/Cayman	2015-07-12
11205015	Seven Miles	Seven Miles		19.33366	-81.38062	P	PPL	KY						0		8	America/Cayman	2016-07-26
