favourites_count,followers_count,hashtags,retweet_count,tweet_text
9666,45638,['HeritageMinute'],20,41 years ago the new Immigration Act came into effect this week. It was the first time refugees were included as a distinct type of immigration. Watch the Boat People Refugees #HeritageMinute to learn about how this law impacted refugees to Canada: https://t.co/wObtPzUDIN
31774,1510,[],2,"3) What rationale would require Vietnamese boat people, Russian refuseniks, Iranian refugees, and Armenian victims of the Turkish persecution, Jews, Mexicans Greeks, or Polish, Hungarian, Cambodian and Korean victims of Communism, to pay reparations to American blacks?"
38739,660,[],2,"3) What rationale would require Vietnamese boat people, Russian refuseniks, Iranian refugees, and Armenian victims of the Turkish persecution, Jews, Mexicans Greeks, or Polish, Hungarian, Cambodian and Korean victims of Communism, to pay reparations to American blacks?"
2629,241,[],0,"@Limamapostat @midi12minuit24 Sauf que les asiatiques, eux, ont été boat-people, colonisés parfois par le Japon, et curieusement, ils réussissent très bien. Pas de prétendu déracinement chez eux, pas de victimisation, pas de traumas transgénérationnels, en tout cas aucun qui empêche leur réussite."
3166,1276,[],2,"3) What rationale would require Vietnamese boat people, Russian refuseniks, Iranian refugees, and Armenian victims of the Turkish persecution, Jews, Mexicans Greeks, or Polish, Hungarian, Cambodian and Korean victims of Communism, to pay reparations to American blacks?"
1923,224,['journeyfromthefall'],0,"Took me awhile to remember the name of this movie. Probably because it was such an honest retelling of some of the experiences my family endured as immigrants, as refugees, as boat people. Highly recommend it if you’ve never seen it. #journeyfromthefall  https://t.co/aZFYcRe7Es"
856,15,[],0,@chriskkenny Don’t forget we will increase the population sustainably with boat people
232,78,[],47,Nous avons envie d’une Europe qui accueille dignement les réfugiés et organise le sauvetage des boat-people en Méditerranée. – @rglucks1 #enviedEurope #CombatsCommuns https://t.co/jweZlHy8bP
0,82,[],0,Bouki and Malis Turned Boat People - Bouki ak Malis Pran Kanntè: Ayibobo - Bo... https://t.co/vV1eX86Ege via @amazon
5814,1569,[],0,"@pbakhmut Right. The classic restaurants that made it past the first year hump were staffed either entirely by immediate family, or boat people."
27673,11362,[],0,"@krassenstein Since I make it a point not to listen to DT, I missed that one. I remember the boat people from Vietnam. They came in &amp; we welcomed them."
5,16,[],0,"@BOConnorMP remember when labor was last in Government unemployment was the highest ever is that what Australia looking forward to if labor becomes government unemployment ,boat people arriving , higher power prices,and be told what we can drive etc"
12239,1521,[],0,nao sei explicar mas acho o George Lam em Boat People parecido demais com o @arthurtuoto https://t.co/wVJtBEctFR
19330,257,[],25,ABC errors include accusing the Navy of torturing boat people. An economic reporter that didn't know the difference between turnover and profit. https://t.co/BsPCj0L7zV
61,13,[],0,"@bongobeach33 Truth hurts hey? ALP/Greens locked up 50,000 boat people from 2008-2013. How many people do u plan to lock up next time?"
438,636,"['AsianAmericanwoman', 'modelminoritymyth']",1,"As an #AsianAmericanwoman who has been swallowed by the #modelminoritymyth her whole life, when you read aggregated data, think of all your chinese takeout and massage parlor, boat people and street canner jokes, not just your doctor. lawyer and IT jokes https://t.co/j7k3qDSqYK"
36671,1293,[],0,"@Rimbeux @xm3lite @ghost_motley @AdamBienkov Yes, rural areas, people who have never lived in a city. I live in Lincs, not local - all I heard in June 2016 was immigration - main concern was refugees ‘those boat people’ as I heard them called. Pointless Boles or anyone trying to appease folk here.  Might as well Remain."
127280,4933,[],1,Kosovo organs;Greece arrest militant;Cyprus:Lebanon;Tunisia boat people;Pirates;Saakashvili;Egypt churches targeted http://nblo.gs/eguxz
62777,842,[],0,"@SecNielsen @DHSgov Reopen the refugee centers used during Katrina crisis. Also, open facilities used to house the boat people from Cuba, like Ft. Wolters.  Use the confiscated property of the FLD cult.  Finally, ship many of them to the Hawaiian island of Molokai, which was used as a leper colony."
1997,500,[],0,@Jill_EllenM Middle daughter will soon quit teaching to do horse hoof trimming. Former large high school teacher of the year. Masters degree. Docs and teachers in the same boat. People pay$5k for dog’s hip replacement. Cash.
1132,24,[],0,@RussPLFC Liverpool’s front three look like boat people just arrived at the docks.
1565,122,['50BookPledge'],0,"Book #42: I just read ""The Boat People"" for the #50BookPledge https://t.co/3C25Bclgns via @savvyreader"
154395,1615,[],26,"""And that spending largely was so Mr Morrison could in March fly to the island, Australia’s most remote territory, for a press conference in which he thundered warnings of imminent arrivals of boat people."" https://t.co/FJZg7UhEoQ"
40688,424,[],14,"Generally it was not warranted. Although I will cop to tiny acts of disobedience, like using the term 'asylum seekers' instead of 'boat people'. He hated that. ""But it's on the internet now, Ray, I can't change it."""
106221,7264,[],14,"Generally it was not warranted. Although I will cop to tiny acts of disobedience, like using the term 'asylum seekers' instead of 'boat people'. He hated that. ""But it's on the internet now, Ray, I can't change it."""
2283,215,[],1,@SkyNews Its why they need a wall. These people will risk their children lives to get in illegally. Same as the boat people of the med. The traffickers literally banked on the rescue ships.
40449,309,[],14,"Generally it was not warranted. Although I will cop to tiny acts of disobedience, like using the term 'asylum seekers' instead of 'boat people'. He hated that. ""But it's on the internet now, Ray, I can't change it."""
4657,330,[],1,@SkyNews Its why they need a wall. These people will risk their children lives to get in illegally. Same as the boat people of the med. The traffickers literally banked on the rescue ships.
2643,66,[],1,"@LesStonehouse If you want to pay more in tax, and be overrun by Islamic boat people, take a gamble with Bill. In contrast for Sound Economic Management and Strong Border Defence whilst paying less tax - vote LNP under Scot Morrison. https://t.co/m2IPRDmC13"
2287,48,"['nekminit', 'VoteThemOut', 'AusPol']",0,"We'll be swamped by boat people loed @ScottMorrisonMP, we must reopen Christmas Island #nekminit no boat people, no refugee crisis and only a press con to show for $180Million! How.many things can he fuck up before we #VoteThemOut #AusPol https://t.co/ysHcBpZmNU"
17689,352,[],0,@TheMarkPantano Shouldn't put Ideas in someones head. It won't belong before we start seeing Russian boat people crossing the Bearing Sea for asylum. I'm talking Russian Soldiers.
0,150,[],0,50 verschwundene Boat-people: Italienisch-libysche Black-Box https://t.co/tGkTYvvRNG
1083,826,[],0,"@alexfoti Tra l'altro la Germania dell'Est faceva esattamente *il contrario* di quanto dice Streeck, cioè importava i lavoratori vietnamiti del Nord per abbassare il costo del lavoro in alcune industrie e li tormentava con restrizioni disumane. Altro che boat people:https://t.co/65rVFys4FX https://t.co/AF9yoyPqSW"
49385,832,[],0,"@Reevothejojofan Thats a Free Company, the Grand Company is Twin Adders/ flames/ boat people"
4761,1190,[],1,"@LesStonehouse If you want to pay more in tax, and be overrun by Islamic boat people, take a gamble with Bill. In contrast for Sound Economic Management and Strong Border Defence whilst paying less tax - vote LNP under Scot Morrison. https://t.co/m2IPRDmC13"
83013,1124,[],26,"""And that spending largely was so Mr Morrison could in March fly to the island, Australia’s most remote territory, for a press conference in which he thundered warnings of imminent arrivals of boat people."" https://t.co/FJZg7UhEoQ"
61,13,[],0,@ChrisCanberra @louinoosa @JulianBurnside @ScottMorrisonMP I believe there were only 8 boat people in detention just before Labor abolished Howards Pacific Solution. Of course there were lots of visa overstayers and other people in detention but only 8 boat people in 2008
158127,1685,[],26,"""And that spending largely was so Mr Morrison could in March fly to the island, Australia’s most remote territory, for a press conference in which he thundered warnings of imminent arrivals of boat people."" https://t.co/FJZg7UhEoQ"
135891,3494,[],26,"""And that spending largely was so Mr Morrison could in March fly to the island, Australia’s most remote territory, for a press conference in which he thundered warnings of imminent arrivals of boat people."" https://t.co/FJZg7UhEoQ"
8298,3834,[],26,"""And that spending largely was so Mr Morrison could in March fly to the island, Australia’s most remote territory, for a press conference in which he thundered warnings of imminent arrivals of boat people."" https://t.co/FJZg7UhEoQ"
8006,606,[],26,"""And that spending largely was so Mr Morrison could in March fly to the island, Australia’s most remote territory, for a press conference in which he thundered warnings of imminent arrivals of boat people."" https://t.co/FJZg7UhEoQ"
42522,2336,[],81,The Greens/ALP party are extremely happy to have started the process of opening up Australia to illegal boat people. It scares the hell out of me that the Greens are in control of ALP policy.  https://t.co/KSfERPYruq
106741,3060,[],26,"""And that spending largely was so Mr Morrison could in March fly to the island, Australia’s most remote territory, for a press conference in which he thundered warnings of imminent arrivals of boat people."" https://t.co/FJZg7UhEoQ"
117948,2442,[],26,"""And that spending largely was so Mr Morrison could in March fly to the island, Australia’s most remote territory, for a press conference in which he thundered warnings of imminent arrivals of boat people."" https://t.co/FJZg7UhEoQ"
3,612,['cah'],0,"Coming soon from Pixar: ""*Boat people: half boat, half human.*"" #cah"
14158,130,[],26,"""And that spending largely was so Mr Morrison could in March fly to the island, Australia’s most remote territory, for a press conference in which he thundered warnings of imminent arrivals of boat people."" https://t.co/FJZg7UhEoQ"
47068,451,[],26,"""And that spending largely was so Mr Morrison could in March fly to the island, Australia’s most remote territory, for a press conference in which he thundered warnings of imminent arrivals of boat people."" https://t.co/FJZg7UhEoQ"
30994,246,[],26,"""And that spending largely was so Mr Morrison could in March fly to the island, Australia’s most remote territory, for a press conference in which he thundered warnings of imminent arrivals of boat people."" https://t.co/FJZg7UhEoQ"
26477,502,[],26,"""And that spending largely was so Mr Morrison could in March fly to the island, Australia’s most remote territory, for a press conference in which he thundered warnings of imminent arrivals of boat people."" https://t.co/FJZg7UhEoQ"
23091,288,[],26,"""And that spending largely was so Mr Morrison could in March fly to the island, Australia’s most remote territory, for a press conference in which he thundered warnings of imminent arrivals of boat people."" https://t.co/FJZg7UhEoQ"
1364,485,[],26,"""And that spending largely was so Mr Morrison could in March fly to the island, Australia’s most remote territory, for a press conference in which he thundered warnings of imminent arrivals of boat people."" https://t.co/FJZg7UhEoQ"
5088,10611,[],14,"Generally it was not warranted. Although I will cop to tiny acts of disobedience, like using the term 'asylum seekers' instead of 'boat people'. He hated that. ""But it's on the internet now, Ray, I can't change it."""
1401,59,[],26,"""And that spending largely was so Mr Morrison could in March fly to the island, Australia’s most remote territory, for a press conference in which he thundered warnings of imminent arrivals of boat people."" https://t.co/FJZg7UhEoQ"
43615,1925,[],26,"""And that spending largely was so Mr Morrison could in March fly to the island, Australia’s most remote territory, for a press conference in which he thundered warnings of imminent arrivals of boat people."" https://t.co/FJZg7UhEoQ"
208195,9803,[],26,"""And that spending largely was so Mr Morrison could in March fly to the island, Australia’s most remote territory, for a press conference in which he thundered warnings of imminent arrivals of boat people."" https://t.co/FJZg7UhEoQ"
128742,15171,[],26,"""And that spending largely was so Mr Morrison could in March fly to the island, Australia’s most remote territory, for a press conference in which he thundered warnings of imminent arrivals of boat people."" https://t.co/FJZg7UhEoQ"
2699,61,[],0,@MartinkusJohn Applaud your view. Not sure of community fed up with msnus/naru issue. Know quite a few people still rabidly anti 'boat people'. Hope youre right.
32678,1006,[],0,"@kcosterinsydney @BennettBronwyn @Abdulaziz_Ada A massive influx of Europeans in the 50s &amp; 60s after WW2. The French capitulated in Viet Nam in '54, we didn't get there until 1966. The first boat people I remember, the Vietnamese, we welcomed them. Korea, Borneo, Malysia, how did we destabilise all of these countries?"
13232,349,[],0,"More than thirty years after April 30th 1975 (Day of fall or liberation  of Saigon ? National day of hatred ?). It's about Vietnam, re-education  camp, Boat People and Ideology war. Let the readers have the judgement. Just remember that all wars are dirty https://t.co/LaUFa2BlSV"
61,13,[],0,"@beathere13 @JulianBurnside ALP/Greens spent $15B on the 50,000 boat people they locked up. Our detention centers were empty in 2007until Labor caused all the problems"
61,13,[],0,"@louinoosa @JulianBurnside @ScottMorrisonMP Our detention centers were empty in 2007. Then from 2008-2013 ALP/Greens locked up 50,000 boat people costing us $15B. $185M is nothing compared to what ALP/Greens wasted. In fact they created all the problems"
13,6,[],0,"@hailey_lp There are three types of Mariners fans: red boat, yellow boat, or green boat people. We need these results!"
34055,2563,['auspol'],0,If only Sarah Hanson-Young got this angry about the 200 people that drowned at sea in 2011 on a illegal people smuggler boat encouraged by the Greens/Labor policy. Instead her response was to shrug it off and say ‘accidents happen’ #auspol https://t.co/R3BOWTJOWm https://t.co/vNstTsRGgf
18,7,[],0,"@TuckerCarlson But Tucker, how down trodden can they be? My idea of refugees is thin people dressed in tatters like the Vietnam boat people or the displaced after WW2. Tucker, these people at our southern border are well fed with fresh haircuts. We’re being scammed."
872,143,[],0,@DamagedGoods200 @LiberalAus I agree until we scan every container and throw away the key to convicted distributers we will never win the way on drugs. at least USA can hide behind there poor neighbours send drugs across the border.  we don't have any neighbours. drugs should be policed just like boat people
162379,1360,[],13,"Canada welcomed my parents &amp; other Boat People when other nations were closing their borders to people in need - providing more than refuge, it became home.  One of the ways I honour that act of compassion is to serve, proudly, @HMCS_NCSM_YORK. https://t.co/WycQSPuMGD via @nkeung"
9246,697,[],0,@workmanalice @SenatorWong Does she find it ‘personally sad’ when they contribute to it? What about when Bill demonises boat people? Or is it just sad when an irrelevant moron who we’ll never see again after the election does it.
417,22,['Books'],0,"@SenSanders No fan of SA 🇸🇦 ISIS is in Yemen, should we put boots on the ground? Should we just let them take over the country and do there what they did I. Syria? Great Famine? Holocaust? Killing Fields? Vietnamese Boat People? And you think Yemen is is a worse crisis than those? #Books"
2258,110,['Medevac'],0,"@SBSNews But but but, didn't @ScottMorrisonMP warn us after the #Medevac bill that there'd be a flood of boat people invading our shores. He didn't LIE did he. Colour me shocked 😱"
6727,48,[],0,What did I say. Where was the flood of boat people? More waste of the taxpayer money. https://t.co/KanoNJV0nX
805,18,[],0,@catdownunder @RichardDiNatale Oh bollocks. Morrison reopened it for no reason. The supposed flood of boat people never eventuated and Morrison knew it wouldn’t. Pure (obscenely expensive) political theatre
21759,76,[],3,AP: 50 Boat-people vor Libyen in SOS – Küstenwache: Black-Out https://t.co/c9QtSL1TLG
4812,313,[],0,@_sara_jade_ What! There’s been no boat people? But @ScottMorrisonMP assured us that we were about to be overrun by hoards of illegal immigrants and people smugglers. Surely this fiasco is proof enough he’s full of shit.
2131,99,[],0,"@gilberthealien @Ziva2010 @dowdyprogrammer or making them legal to stop slavery, or subsidise them in their own countries as the eu should have done. i cant believe all of those boat people really wanted to come to europe by choice/"
4829,13466,[],3,AP: 50 Boat-people vor Libyen in SOS – Küstenwache: Black-Out https://t.co/c9QtSL1TLG
0,150,[],3,AP: 50 Boat-people vor Libyen in SOS – Küstenwache: Black-Out https://t.co/c9QtSL1TLG
14767,3329,[],0,"Austin's asking his colleagues to vote against the staff recommendation, and support the alternative: entering into a partnership with the boat people."
307135,2345,"['Palestinian', 'Europe']",3,"Has anyone if heard of the #Palestinian 'boat people'?   Where are the hoards of Palestinians fleeing to #Europe or neighbouring countries?  Therefore, the absence of the above would suggest #Gaza isn`t that bad! https://t.co/3BSFUSoaq5"
11576,126,[],0,"@TomiLahren @realDonaldTrump A product of Elliott Abrams ""fabulous achievement"" in Central America. Don't look now....boat people from Venezuela....another ""fabulous achievement'"
2811,618,['ScoMo'],33,"Interesting to remember that #ScoMo and his cronies swore that Indonesian people smugglers were already gearing up to swamp Australia with boat people if the medevac bill passed. It did. And low, months later, nary a boat to be seen. Another day, another lie. #auspol"
6651,37,[],0,@SeptemberDresan @US1stDeplorable @SenGaryPeters I like your comment because I have loved ones in the same boat.  People some how think because they have healthcare its equally as simple for somebody else to have access.
8,862,[],0,"𝘾 𝙇 𝙐 𝘽  𝙋 𝘼 𝘾 𝙄 𝙁 𝙄 𝘾 𝙊 ⁣ - Tee inspi niponne et pantalon 70s tissé, tous deux maintenant en ligne!  Tee: https://t.co/INgFVGirAw Pantalon rétro: https://t.co/ZRsOH84bmU  Fahey LePapillon par Sam St-Onge⁣"
7187,739,"['THEWORLD', 'THEIRABC', 'BREAKFASTNEWS', 'AUSPOL']",0,Bloke from the Lowey Institute sooking on ABC - wants more $$'s for Foreign aid. Then says we were better under Labor.  LIAR !  #THEWORLD  #THEIRABC  #BREAKFASTNEWS  Our foreign aid was spent on illegal boat people under Labor.  Mr Lowey @LowyInstitute is a liar !  #AUSPOL https://t.co/dHMAqGjn2Z
379,9,[],0,"@TimG57867 @captainlpika I’ve been in the same boat. People will immediately say that Pichu is way better than Pika and that you should never use Pika, but imo the gap isn’t that bad, and they are actually really different, so you can pick whoever you like to main"
3053,383,[],0,"Vous pouvez arrêter de sucer la soirée de samedi avec Arnaud boat people, on sait qu’on vous a promit l’entrée gratuite ... Je précise que l’entrée est à 3 balles. 🤦🏻‍♂️"
4495,720,[],0,"@Olfella @LiberalAus Well if he wins the election (yeh, I know, funny hey), he'll fly back to Christmas Island I bet to declare victory on the war on refugees (sorry boat people) while standing on the bow of a Navy destroyer just off the coast or something. You know, Trump style. 😏"
21931,2365,['ScoMo'],33,"Interesting to remember that #ScoMo and his cronies swore that Indonesian people smugglers were already gearing up to swamp Australia with boat people if the medevac bill passed. It did. And low, months later, nary a boat to be seen. Another day, another lie. #auspol"
62083,1024,[],3,"do children in Kashmir still swim freely in such rivulets(canals) chasma? water is pure, flows for all, Man makes it impure? In Srinagar also many people reside on boats-in such streams, boat people? peace tranquility spirituality etc were once synonyms of Kashmir Kashmiriyat https://t.co/KEkkmhV7CD"
975,32,"['Palestinian', 'Europe']",3,"Has anyone if heard of the #Palestinian 'boat people'?   Where are the hoards of Palestinians fleeing to #Europe or neighbouring countries?  Therefore, the absence of the above would suggest #Gaza isn`t that bad! https://t.co/3BSFUSoaq5"
224721,1730,"['Palestinian', 'Europe']",3,"Has anyone if heard of the #Palestinian 'boat people'?   Where are the hoards of Palestinians fleeing to #Europe or neighbouring countries?  Therefore, the absence of the above would suggest #Gaza isn`t that bad! https://t.co/3BSFUSoaq5"
40,176,[],0,@corybernardi @AuConservatives The bizarre irrelevant marginal son of boat people Cory makes himself even more irrelevant
10033,509,['ScoMo'],33,"Interesting to remember that #ScoMo and his cronies swore that Indonesian people smugglers were already gearing up to swamp Australia with boat people if the medevac bill passed. It did. And low, months later, nary a boat to be seen. Another day, another lie. #auspol"
174,15,[],0,"@PeterDutton_MP Bit rich coming from you don’t you think, your the least trustworthy person in politics today, how you have handled Manus and boat people and deceived the public goes along way to tell us who you are, not long now and your cooked"
7029,488,"['Palestinian', 'Europe', 'Gaza']",3,"Has anyone if heard of the #Palestinian 'boat people'?   Where are the hoards of Palestinians fleeing to #Europe or neighbouring countries?  Therefore, the absence of the above would suggest #Gaza isn`t that bad! https://t.co/3BSFUSoaq5"
7601,14,[],0,@TimesNow @Amir_Haque All chowkidars are sailing in the same boat. People have to throw all of them out of power and country will be safe without rapes and lynching.
3316,243,"['Medivac', 'auspol']",0,"Since the #Medivac scare campaign by the Libs, and reopening of Christmas Island Detention Centre, where's the influx of boat people we were told would happen... or is that being saved for the official election campaign? #auspol"
6200,1225,['ScoMo'],33,"Interesting to remember that #ScoMo and his cronies swore that Indonesian people smugglers were already gearing up to swamp Australia with boat people if the medevac bill passed. It did. And low, months later, nary a boat to be seen. Another day, another lie. #auspol"
2663,241,[],0,More boat people arrived overnight @SkyNews @BBCNews Where 's the reports?
39,10,[],0,"@DomV3 @JimRHoughton @simpsubhswf @alias_burgerboy @tanya_plibersek @JuliaGillard @billshortenmp Julia was one of a kind /sold soul to  independants ,greens to achieve office/CARBON TAX/NBN WHITE ELEPHANT /billions wasted BER/minerals resource tax disaster/unfunded NDS /UNCONTROLLED DEBT/ BOAT PEOPLE EVERYWHERE/ URANIUM TO INDIA/ MAN HATING EMILYS LIST."
21962,1494,['ScoMo'],33,"Interesting to remember that #ScoMo and his cronies swore that Indonesian people smugglers were already gearing up to swamp Australia with boat people if the medevac bill passed. It did. And low, months later, nary a boat to be seen. Another day, another lie. #auspol"
