favourites_count,followers_count,hashtags,retweet_count,tweet_text
8206,222,[],4,RT @Ashtalakshmi8: @vanitajain21 @Ramesh_BJP @pandey_indrani @nidi_nj @VandanaJayrajan @RidhimaTripath4 @namoArunima @Reema_bjp @RohiniShah…
40451,279,[],4,RT @Ashtalakshmi8: @vanitajain21 @Ramesh_BJP @pandey_indrani @nidi_nj @VandanaJayrajan @RidhimaTripath4 @namoArunima @Reema_bjp @RohiniShah…
60731,1231,[],4,RT @Ashtalakshmi8: @vanitajain21 @Ramesh_BJP @pandey_indrani @nidi_nj @VandanaJayrajan @RidhimaTripath4 @namoArunima @Reema_bjp @RohiniShah…
41170,1140,[],4,RT @Ashtalakshmi8: @vanitajain21 @Ramesh_BJP @pandey_indrani @nidi_nj @VandanaJayrajan @RidhimaTripath4 @namoArunima @Reema_bjp @RohiniShah…
6063,531,"['InternationalWomensDay', 'RaGa', 'NidhiRazdan', 'SoniaGandhi', 'Mehbooba', 'Sanjuktha', 'Bainjal']",4,"@vanitajain21 @Ramesh_BJP @pandey_indrani @nidi_nj @VandanaJayrajan @RidhimaTripath4 @namoArunima @Reema_bjp @RohiniShah73 @iamchalasani @AshBiswal @SoniaGurnani19 @VarierSangitha @GauravModified 🌷Happy Women's Day 2019🌷to you too💜 On #InternationalWomensDay I share my ""NOT TO BE WOMEN's IDOL's""  #RaGa #NidhiRazdan #SoniaGandhi #Mehbooba #Sanjuktha #Bainjal I urge my fellow-friends to tag 5 friends &amp; share their ""NOT TO BE IDOLS"" @suprema_she @Saru81589968 @PidiBuster https://t.co/mfigDO19TZ"
220,72,['RaGa'],0,"@AskAnshul #RaGa, Diggi &amp; ConP  leaders should atleast trust that Italian🤣Women."
57465,2095,[],1,"RT @DAkkshay: @PrinceArihan @RahulGandhi One of the Biggest Let-Downs made &amp; supported by Pseudo Sickular Media, is to Claim &amp; Promote that…"
480,5,"['RaGa', 'Didi']",1,"@PrinceArihan @RahulGandhi One of the Biggest Let-Downs made &amp; supported by Pseudo Sickular Media, is to Claim &amp; Promote that #RaGa is a Youth Icon &amp; a 60+ Old Lady of W.Bengal is called #Didi !. They have Self Certified all this!.They have No credibility. But Still they are Presented &amp; Promoted like that!"
13831,265,['RaGa'],0,एक बार राहुल गांधी ने मम्मी से पूछा कि मम्मी मोदीजी को रात में भी टारगेट कैसे देख तेले है तभी मम्मी बोली बीटा इसीलिए तुम्हारी शादी नही हो रही है कलमुहे #RaGa
259,112,"['LokSabhaElection2019', 'Amethi', 'RaGa', 'SmritiIrani', 'SmritiIrani']",0,"After @RahulGandhi decided to fight #LokSabhaElection2019 from #Amethi against @smritiirani. I must say Game is on !! In 2014, with Modi wave #RaGa got 46% votes (4.08 Lacs Votes) and got 1 lac more votes than #SmritiIrani ( 3 Lac Votes) Will #SmritiIrani Can swing 1 Lacs votes?"
4776,37,['RaGa'],0,@RanaAyyub FOR ???? I’ve got ample reasons ... Take a pick ... Unless a #RaGa bhakt’s level of mediocrity becomes questionable ... It’s beyond your eligibility to understand all of these ... You stick to what you’ve been doing ... you’re good at it ... 🤣🤣🤣
929,14,['RaGa'],0,"@RahulGandhi @INCTelangana @INCIndia The great people who are asking for Proof on Balakot , watch this Video how SPICE2000 works. #RaGa Go to school to know, how missile works:  https://t.co/6ADb3NekPz"
3,53,['RaGa'],0,"@srivatsayb You need 10 Kg Tomatoes, 5 Kg Onions, 5 Kg Potatoes.   But have money to buy either 10 Kg Tomatoes or 5 Kg each of Tomatoes, Potatoes and Onions, what would you do?  Buy the latter and come back when you have money to buy remaining tomatoes?  #RaGa &amp; followers = no common sense"
330,4911,"['elaborate', 'haters', 'RaGa', 'ApnaTimeAayega']",0,Well; its needless to #elaborate as people who are just 'Awake' wont need it and #haters wont believe it 🙏🏻  So all the best with your #RaGa tune  I just hope he can get 100 to atleast come out and try harder in 2024 to say #ApnaTimeAayega 😂🙏🏻  Enjoy your weekend man 🎅 https://t.co/nNSRc9cVeY
816,86,"['Void', 'Raga', 'Lagbhag']",0,#Void &amp; #Raga 's Brain  #Lagbhag same !!
0,8,"['Raga', 'ModiHainTohMumkinHain', 'Modi4NewIndia', 'ModiOnceMore']",2,RT @Prakash94315812: Can Congress followers say same for #Raga #ModiHainTohMumkinHain #Modi4NewIndia #ModiOnceMore https://t.co/8mWTu5pCZA
412,599,['RaGa'],0,@KarunaGopal1 Should have slapped a 30000 Crore notice as this number is well remembered by #RaGa
491,533,"['NaMo', 'RaGa', 'Kejriwal', 'NOTA']",0,"Today, March 8 is International Women's Day @IntlWD. I DEMAND 1/2 seats in Legislatures, Admin, Judiciary, Teaching shld be reserved for Women. So, #NaMo #RaGa #Kejriwal out of 542 seats in Lok Sabha, 271 should go to Women. Ere #NOTA applies 🤣Hello Liberal Women, what say you?"
3900,3714,"['RahulJi', 'ParivartanRally', 'Waqt_Hai_Badlav_Ka', 'RaGa', 'JaiCongress']",0,#RahulJi 's #ParivartanRally in chambi kangra #Waqt_Hai_Badlav_Ka #RaGa  #JaiCongress
26,581,"['NaMo', 'RaGa', 'Chemist']",0,"“What elements is #NaMo made off”? “What elements is #RaGa made off”? The #Chemist in me tried to do the analysis.  The inference I got is, NaMo is composition of sodium (Na) and molybdenum (Mo). Sodium is part... https://t.co/iYLhxEalq8"
22168,352,['RaGa'],0,देहरादून चलो । #RaGa @SumitHridayesh @IndiraHridayesh https://t.co/c7XDI63Z8k
22168,352,['RaGa'],1,RT @INChimanshu: देहरादून चलो । #RaGa @SumitHridayesh @IndiraHridayesh https://t.co/5k7oZeApbM
0,0,"['RaGa', 'Epic', 'GayabHoGaya', 'SabootGangMissing']",0,#RaGa #Epic #GayabHoGaya #SabootGangMissing https://t.co/HeWV2LR7xn
5701,122,"['RahulGandhiLieChallenge', 'RaGa', 'RafaleDeal', 'Rafale']",0,#RahulGandhiLieChallenge another lie of @RahulGandhi busted!! Congress delayed Rafale admission by UPA ex-MoD. Now #RaGa should tell Indians which nation’s interest was #RafaleDeal delayed? Was it lobbying for Euro-Fighters? Or commission delays? #Rafale  @Ra_THORe @Gen_VKSingh https://t.co/sAfvTJOfrU
48,13,['raga'],0,@amitmalviya kya hua... #raga ne hack Liya kya😊😊😊 https://t.co/45J4mWxJah
818,164,[],6,RT @GemArtsuk: We are sooooo looking forward to this tomorrow 7.30pm at Kings Hall - tickets avail at the door too @UniofNewcastle  @shakir…
6036,125,['RaGa'],1,देहरादून चलो । #RaGa @SumitHridayesh @IndiraHridayesh https://t.co/5k7oZeApbM
364,9,['RaGa'],0,"@ndtvfeed @ndtv Mr. #RaGa whatever ways and means you try to create controversy, you are not gonna win 2019 elections. Don't waste your time and energy 🤣🤣 @RahulGandhi @narendramodi"
28291,157,"['RaGa', 'CongressKaHaathJhootKeSaath']",0,@INCIndia @RahulGandhi तुम लोग तो क़तई बेशर्मी पर उतर आए हो. #RaGa it is proven fact that u r compulsive liar.   Revival of food processing industry in Punjab has been solely due to efforts of @HarsimratBadal_   Shameless Liar RaGa   #CongressKaHaathJhootKeSaath https://t.co/sT2NURuJN6
8975,34,"['raga', 'rafa', 'CongressPakistanUnited']",0,@divyaspandana Liar. Antony says otherwise. Kyon? Appropriate amount nahin milaa? Why is #raga so obsessed with #rafa le?. Hits the pocket? We saw what happened to Mirage maintained by HAL. #CongressPakistanUnited
282,34,['Raga'],0,@aajtak #Raga still blabbering nonsense hadd hai
1125,1143,[],6,RT @GemArtsuk: We are sooooo looking forward to this tomorrow 7.30pm at Kings Hall - tickets avail at the door too @UniofNewcastle  @shakir…
0,130,"['narendramodi', 'BJPnews']",1,RT @sandymenon: BILAWAL BHUTTO ASKING WHY TERROR PARTIES ARE NOT BANNED IN PAKISTAN. https://t.co/SDcq8jGBZA #narendramodi #BJPnews #Pulwam…
920,59,['raga'],0,@saliltripathi @dvsax If language and spelling decide your character then defitnely you r #raga follower
2872,214,[],6,RT @GemArtsuk: We are sooooo looking forward to this tomorrow 7.30pm at Kings Hall - tickets avail at the door too @UniofNewcastle  @shakir…
443,94,"['RaGa', 'Diggy', 'Congressspokespersons', 'Turncoats', 'NaMo']",0,@tehseenp @DDNewsLive @narendramodi @BSYBJP @RahulGandhi @yadavakhilesh @Mayawati @MamataOfficial #RaGa #Diggy #Congressspokespersons are all motormouths and do not deserve an iota of media attention. #Turncoats of Indian politics . #NaMo works but that doesn’t exactly work with you folks of the MMS wala decayde n more( pun intended)
26315,149,['RAGA'],0,@Airavta Abe #RAGA Ka party Ka 💺 mil gaya Kya tujhe?
706,15,"['RaGa', 'Pidis']",0,"@OpIndia_com True #RaGa is smart , he knows how to make #Pidis dance .."
1119,171,[],12,RT @MullappallyR: Jana Maha Yatra conclusion ceremony  was without any fanfare as the whole state was reeling under the sorrow  of the snuf…
443,94,"['narendramodi', 'BJPnews', 'PulwamaTerrorAttack', 'IAF', 'JaiHind', 'Terroristan', 'NaMo', 'RaGa', 'mahagatbandhan', 'Nirmalasitharaman', 'NationFirst', 'TimesNow', 'Zeenews', 'IndiaToday', 'RepublicTV']",1,BILAWAL BHUTTO ASKING WHY TERROR PARTIES ARE NOT BANNED IN PAKISTAN. https://t.co/SDcq8jGBZA #narendramodi #BJPnews #PulwamaTerrorAttack #IAF #JaiHind #Terroristan #NaMo #RaGa #mahagatbandhan #Nirmalasitharaman #NationFirst #TimesNow #Zeenews #IndiaToday #RepublicTV
1850,6663,"['Liberal', 'PM', 'paid', 'RaGa', 'libtards']",0,"#Liberal logic: Anyone who tweets in favour of the longest serving CM of Gujarat and democratically elected #PM of India is #paid,  but anyone tweeting in favour of that nincompoop #RaGa is simply stating his opinion or doing it out of goodwill.  #libtards"
3320,33741,[],6,RT @GemArtsuk: We are sooooo looking forward to this tomorrow 7.30pm at Kings Hall - tickets avail at the door too @UniofNewcastle  @shakir…
248424,7162,[],6,RT @blackmarketkarm: Check out this beautifully worded review of our 6th Record “The Sixth Time Around” by Sonic Alien at  https://t.co/oEH…
46845,2998,[],6,RT @blackmarketkarm: Check out this beautifully worded review of our 6th Record “The Sixth Time Around” by Sonic Alien at  https://t.co/oEH…
13081,6392,"['EthnoCloudsBestChoiceDaily', 'ECBCD', 'worldmusic', 'IndianMusic', 'raga', 'violin', 'Netherlands']",0,#EthnoCloudsBestChoiceDaily  Watch and enjoy  ☛ https://t.co/GnCeZSwyMR RT #ECBCD #worldmusic #IndianMusic #raga #violin @MatangiQuartet @padvarken #Netherlands https://t.co/ASER4nagBP
3892,19,['RAGA'],0,"@capt_amarinder @RahulGandhi @narendramodi @Akali_Dal_ @INCIndia Capt's mind is thinking different but he has to satisfy #RAGA here and pleased, all politics...🤗🤗🤗"
105,6,"['RafaleDeal', 'RaGa']",0,@anilambani Please sir if you didn't done anything wrong in #RafaleDeal then please do take action against #RaGa
219,119,"['RaGa', 'RahulGandhi', 'PoorLutyans']",0,Also the hallmark of todays TVs big names is to immediately jump on #RaGa speech and repeating it whole day forgetting that same thing was spoken by #RahulGandhi last week only #PoorLutyans https://t.co/UI4zI3sfCe
8975,34,"['RAGA', 'RAFA', 'PulwamaAttack']",0,"@OpIndia_com Congress has limited wisdom and cannot think beyond what the Party President can. While he is busy rhyming #RAGA with #RAFA le, the bookies in his party see match fixing in #PulwamaAttack"
1,66,"['Raga', 'BilaskhaniTodi', 'OmeSwarlipi']",0,"#Raga #BilaskhaniTodi  Ascent: s R G p D su  Descent: ru N D p, D m G R G R s  #OmeSwarlipi https://t.co/C8OBNWgKwe"
2119,569,[],6,RT @GemArtsuk: We are sooooo looking forward to this tomorrow 7.30pm at Kings Hall - tickets avail at the door too @UniofNewcastle  @shakir…
2229,21529,[],6,RT @GemArtsuk: We are sooooo looking forward to this tomorrow 7.30pm at Kings Hall - tickets avail at the door too @UniofNewcastle  @shakir…
4003,2795,"['ACEsupporred', 'culturematters', 'creativecase', 'music', 'raga']",6,We are sooooo looking forward to this tomorrow 7.30pm at Kings Hall - tickets avail at the door too @UniofNewcastle  @shakirkhansitar @bhupinderchagga @kavirajsingh_ @NCLcreativearts @ace_national @ace_thenorth @Meeleecat #ACEsupporred #culturematters #creativecase #music #raga https://t.co/zCF577Rr91
3,18,['RaGa'],0,@TimesNow @rsprasad Actually @RahulGandhi contact Masud Azar and @ImranKhanPTI for help in conducting a terror incident to blame @narendramodi for inaction. But Modi kicked @ImranKhanPTI straight in his balls. Everything went bad for #RaGa thereafter.
11751,197,"['RaGa', 'IndianActor', 'RoyalLooking', 'EkThaRajaEkThiRani', 'Ranaji', 'ExpressionKing', 'Hottie', 'RaniGayatri', 'SuperhitShow', 'Worldwide', 'India', 'Srilanka', 'ArabWorld', 'Thailand', 'Indonesia', 'Germany']",0,Ranaji👑. Royal Hotness 🔥💓. #RaGa  Ranaji-Gayatri 🔥 . @SiddhantKarnick #IndianActor #RoyalLooking #EkThaRajaEkThiRani #Ranaji #ExpressionKing #Hottie @drashti10 #RaniGayatri #SuperhitShow #Worldwide #India #Srilanka #ArabWorld #Thailand #Indonesia #Germany https://t.co/0lbhkTBy7K
8975,34,"['RafaleDeal', 'RAGA', 'RAFA']",0,@Shehzad_Ind Allow me to explain why Rahul is obsessed with #RafaleDeal . #RAGA sounds close to #RAFA..ale. Being a narcissistic guy he can't give it up. @hvgoenka @TarekFatah @ShashiTharoor @DrShobha @UnSubtleDesi @TajinderBagga @Iyervval @TVMohandasPai @smritiirani @Atheist_Krishna
1884,1044,['RaGa'],0,@IndiaToday I hope you have whole set of team Just like #RaGa
16879,1309,"['Raga', 'ModiHainTohMumkinHain', 'Modi4NewIndia', 'ModiOnceMore']",2,RT @Prakash94315812: Can Congress followers say same for #Raga #ModiHainTohMumkinHain #Modi4NewIndia #ModiOnceMore https://t.co/8mWTu5pCZA
29,15,['RAGA'],0,@IYC @sherryontopp Not fool to leasten u...you lost the credibility which u hav earned through Cricket..shame on you..for what you are selling yourself? To be part of gang of monkeys #RAGA group..hell you
143,13,"['TwitterHandler', 'BhonduLeader', 'RaGa']",1,RT @akashlinux: @ProfCong Dear #TwitterHandler of @ProfCong and IT team of #BhonduLeader #RaGa this filmy video scene is fine but why you h…
29,15,"['RAGA', 'RAGA', 'Rafale']",0,I thnk..no i don't think i knw tht #RAGA is out of his mind.come on grow up #RAGA.Do u think people r full 2 buy ur #Rafale nonsense.Dont u hav any other subject on basis you can fight election?its really becoming too irritating to even see u on Tv &amp; do u believe v ll vote for u?
2091,212,"['raga', 'NarenrdaModi', 'RafaleDeal', 'UPA', 'RahulGandhiLieChallenge']",0,"#raga questioning #NarenrdaModi involvement (who is actually the Head of the govt. &amp; thus, responsible for all decisions of govt) in negotiations in #RafaleDeal won't answer in what capacity was his mummy vetoing all the files of pmo during #UPA govt. #RahulGandhiLieChallenge"
3,2,"['Raga', 'ModiHainTohMumkinHain', 'Modi4NewIndia', 'ModiOnceMore']",2,Can Congress followers say same for #Raga #ModiHainTohMumkinHain #Modi4NewIndia #ModiOnceMore https://t.co/8mWTu5pCZA
190,81,"['NamoAgain', 'RAGA']",0,@ArvindKejriwal Sab party Milne se wo ek Achha Samaj jaisa ban sakta hai.Lekin ek hi party sab jagah Jeetne se ek achhi family ban sakti hai apne Parliament me.Aur agar Family hi Achhi hogi to waisi Gathbandan wali Samaj ki Kya Zarurat? @narendramodi #NamoAgain #RAGA tu jaja
480,5,"['LIE', 'ChowkidarChorHai', 'chowkidarsherhai', 'RaGa', 'Pappu']",0,"@Ra_Bies @Ra_Bies ""The Butler Did it!."" , Kind of Logic!. This type of #LIE will Not Endure!. Our Honorable PM @narendramodi is 1 of the Best Ideal Public Servant EVER!. He is NOT #ChowkidarChorHai BUT, #chowkidarsherhai ... #RaGa ji Chori ke Baad, Seena Jhori!... Confident Liar, #Pappu !"
16578,16332,"['RAGA', 'fucktrump', 'JailTrump', 'BirthrightCitizenship', 'ResistTrump', 'RacistInChief', 'notmypresident', 'ImpeachTrump']",1,RT @mark12XL: #RAGA #fucktrump #JailTrump #BirthrightCitizenship #ResistTrump #RacistInChief #notmypresident #ImpeachTrump  #MuellerIsComin…
54116,44925,"['RAGA', 'fucktrump', 'JailTrump', 'BirthrightCitizenship', 'ResistTrump', 'RacistInChief', 'notmypresident', 'ImpeachTrump', 'MuellerIsComingForYou', 'LaughingStockOfTheWorld', 'ResignNOW', 'Enough', 'CollusionIsACrime', 'BorderShutdown', 'LiesLiesLies', 'TearGassingChildren', 'LGBTQ']",1,#RAGA #fucktrump #JailTrump #BirthrightCitizenship #ResistTrump #RacistInChief #notmypresident #ImpeachTrump  #MuellerIsComingForYou #LaughingStockOfTheWorld #ResignNOW #Enough #CollusionIsACrime #BorderShutdown #LiesLiesLies #TearGassingChildren #LGBTQ https://t.co/KkhntASdMT
18946,465,"['Haravointi', 'RAGA', 'Suomi']",0,@steveshoap @Nikinmaa_L @NForestResearch Never forget #Haravointi saves lives ! #RAGA #Suomi cc @CorporalFrisk @KimmoKannala
859,19,"['RahulGandhi', 'RaGa', 'PriyankaVadra', 'PriyankaGandhi', 'Congress', 'BJP', 'NaMo', 'Modi', 'Election2019']",0,"I heard of launching new Mobile Phones in market to public but Congress has started new trend of launching humans as well,  1st it was #RahulGandhi #RaGa then #PriyankaVadra #PriyankaGandhi #Congress #BJP #NaMo #Modi #Election2019"
2,0,"['RafaleDeal', 'Balakot', 'SurgicalStrike2', 'Elections2019', 'RaGa', 'Congress']",0,Modi won’t give an explanation on #RafaleDeal right now. Nor will he share evidence of #Balakot #SurgicalStrike2. It serves him best to talk on this conclusively closer to #Elections2019. #RaGa and #Congress underestimating him again!
16635,3286,"['RAGA', 'electionpromises', 'futurepoliticians']",0,"@Naina YUp- thats the worrying part!!  Infact #RAGA has announced instant martyrdom, when they come into power, to the ones killed in action!!  Bas yahi bacha tha sunneny ke liye  #electionpromises #futurepoliticians"
4576,32,"['AirStrike', 'NaMoAgain2019', 'NRI4NAMO', 'FightAginstTerrorisom', 'Raga', 'Congress', 'Secularists', 'Awardreturngang', 'Intolerance', 'TMC', 'AAP']",0,#AirStrike #NaMoAgain2019 #NRI4NAMO #FightAginstTerrorisom #Raga #Congress #Secularists #Awardreturngang #Intolerance #TMC #AAP https://t.co/PdICGsaD31
32729,267,"['ComedyShow', 'RaGa', 'HorrowShow', 'NaMo']",1,RT @friendscongress: A one minute #ComedyShow by #RaGa is far better than 24x7 #HorrowShow by #NaMo... https://t.co/6LCqbBLkhG
2433,104819,"['ComedyShow', 'RaGa', 'HorrowShow', 'NaMo']",1,A one minute #ComedyShow by #RaGa is far better than 24x7 #HorrowShow by #NaMo... https://t.co/6LCqbBLkhG
6984,29327,['RaGa'],3,RT @irkjain: #RaGa  नाम: पप्पू सरनेम:गांधी(नकली) नागरिकता: गुप्त शैक्षिक योग्यता: गुप्त मज़हब: गुप्त नस्ल: गुप्त गोत्र:गुप्त अम्मी की बीमा…
12467,38,"['RaGa', 'PROOF', 'AirStrikeProof', 'AirStrikePolitics', 'PoliticsOnRafale', 'CongressPakistanBhaiBhai', 'CongressMuktBharat']",0,"@ANI Dear #RaGa, Please show us #PROOF that the families of martyred CRPF personnel have said that they were hurt &amp; want to see what happened.  #AirStrikeProof #AirStrikePolitics #PoliticsOnRafale #CongressPakistanBhaiBhai #CongressMuktBharat"
2178,114,['RaGa'],0,@VIKASHK98936087 @AcharyaPramodk Please show One quality of #RaGa that makes him PM candidate?
54903,430,"['Pakistan_Interest', 'RaGa']",0,@sunandavashisht You should know @IndianExpress always has #Pakistan_Interest in its mind. How else will they explain the article by @ItsJavedMiandad whose writing skills at best matches #RaGa and is a known rabid anti-Indian?
2199,6,"['RaGa', 'CongressMuktHindustan']",0,@RahulGandhi Shameless #RaGa  No one will let your dynastic Rule return #CongressMuktHindustan
3900,3714,"['RahulGandhi', 'JaiCongress', 'RaGa']",0,#RahulGandhi Rally chambi Kangra #JaiCongress #RaGa @CongresKisan @INCHimachal @IYCHimachal @skyneenu https://t.co/VMJf4bftap
450,97,"['INC', 'RaGa']",0,@siddaramaiah @INCKarnataka ಯಾವಾಗಲೂ ತಿಲಕ ಬಿಡುವ ಯೋಗಿ ಬಗ್ಗೆ ನಮಗೆ ಭಯವಿಲ್ಲ. ಚುನಾವಣೆ ಬಂದಾಗ ತಿಲಕವಿಡುವ ಈ ನಾಯಕರ ಬಗ್ಗೆ ಭಯವಿದೆ #INC #RaGa https://t.co/0LXiYMBQkM
3423,12671,"['RaGa', 'Rafale']",0,WATCH: #RaGa launches attack on government over stolen #Rafale papers      @INCIndia @RahulGandhi https://t.co/bbPL57m6R3
21,13,"['RaGa', 'AP', 'SCS', 'AP']",71,"RT @satyakumar_y: Supposedly #RaGa ji is in Tirupati, #AP to talk about th #SCS of the state  What will u tell th ppl of #AP? That ur party…"
13,9,[],80,"RT @satyakumar_y: To each his own, as they say!  @RahulGandhi has been spreading lies thinking doing so will endear him 2 ppl  Truth, is Mr…"
13,9,"['Raga', 'CONG']",83,RT @satyakumar_y: #Raga ji while u were in AP u might have wondered what #CONG has done for the state. Cos it's NOTHING.   You want to take…
13,9,"['RaGa', 'AP', 'SCS', 'AP']",71,"RT @satyakumar_y: Supposedly #RaGa ji is in Tirupati, #AP to talk about th #SCS of the state  What will u tell th ppl of #AP? That ur party…"
3689,93,[],3,"RT @pallavict: @mvmeet @amitmalviya @ShefVaidya @sharmilagharpur  For many years, a slogan rented every nook &amp; corner of India- Galli galli…"
107,12,"['RaGa', 'AP', 'SCS', 'AP']",71,"RT @satyakumar_y: Supposedly #RaGa ji is in Tirupati, #AP to talk about th #SCS of the state  What will u tell th ppl of #AP? That ur party…"
107,12,"['Raga', 'CONG']",83,RT @satyakumar_y: #Raga ji while u were in AP u might have wondered what #CONG has done for the state. Cos it's NOTHING.   You want to take…
107,12,[],80,"RT @satyakumar_y: To each his own, as they say!  @RahulGandhi has been spreading lies thinking doing so will endear him 2 ppl  Truth, is Mr…"
6840,163,['RaGa'],0,@thewire_in @svaradarajan @narendramodi He cracked a joke on #RaGa not on common people
1381,95,"['Arnab', 'Created', 'Pappu', 'RaGa', 'Crystal', 'No', 'BeatingAroundBush', 'Clear']",1,RT @AshaaKiEkKiran: This is #Arnab #Created #Pappu ....#RaGa is #Crystal Clear in what he is saying...#No #BeatingAroundBush&amp;Trees #Clear&amp;E…
1381,95,"['Arnab', 'Created', 'Pappu', 'RaGa', 'Crystal', 'No', 'BeatingAroundBush', 'Clear', 'NahiJawab']",1,This is #Arnab #Created #Pappu ....#RaGa is #Crystal Clear in what he is saying...#No #BeatingAroundBush&amp;Trees #Clear&amp;EkDumSahiSawal. #NahiJawab !!! https://t.co/nuOdt2WmqY
54,0,['raga'],0,@RahulGandhi @INCIndia your press conference was horse shit. Bhaiya Anil Ambani's firm is a offset partner just the way 72 other companies are. 30000 crores is distributed amongst 72 firms based on their contract. Is this clear now? @rssurjewala stop promoting stupidity via #raga
18,37,"['RaGa', 'Kejriwal', 'AirSurgicalStrikes', 'IndiaFirstModiBest', 'CongressPakistanUnited']",3,RT @CitizenGupta: #RaGa and #Kejriwal after listening about the #AirSurgicalStrikes  #IndiaFirstModiBest #CongressPakistanUnited https://t.…
3889,280,[],1,"RT @SauravNPandey: https://t.co/yEV5PWpEjS कौन बनेगा 2019 में भारत का प्रधानमंत्री? ज्योतिषिय विचार के अनुसार, ग्रह और गोचर के अनुसार!! @as…"
10507,113,"['RaGa', 'Chamchi']",0,@Sarbjee51126102 @sonamJain001 @RahulGandhi Ignore this fake account of #RaGa #Chamchi guys! Their party and their followers knew nothing but scams 🤣🤣
2008,116,[],3,RT @ranjanigayatri: Happy to sing at the Ekatvam Holi Music Festival on 24th March at 6.30 PM at Bengaluru Gayana Samaja. Buy your tickets…
46146,119,['raga'],0,@bdwredaktion @FSupernaut Rake America great again! #raga
63,56,"['Download', 'X360FM', 'App', 'GooglePlayStore', 'AppleStore', 'rockartists', 'hardrock', 'indierock', 'alternativerock', 'classicrock', 'chillrock', 'countryrock', 'heavymetalrock', 'punkrock', 'psychedelicrock', 'bluesrock', 'poprock', 'raga', 'latinrock', 'rootsrock']",0,🕔 LOCK IN NOW! #Download #X360FM #App #GooglePlayStore #AppleStore. M-S @ 5PM ET.  #rockartists #hardrock #indierock #alternativerock #classicrock #chillrock #countryrock #heavymetalrock #punkrock #psychedelicrock #bluesrock #poprock #raga #latinrock #rootsrock @thehypemagazine https://t.co/SN9RcM4OQp
